y Sw_05h temp_05h Sw_1h temp_1h Sw_2h temp_2h Sw_h5 temp_5h
0 0,027463 295,32 0,017503 294,11 0 292,71 0 292,26
-0,00025 0,027463 295,32 0,017503 294,11 0 292,71 0 292,26
-0,0005 0,027841 295,36 0,017936 294,16 0,0034513 292,85 0 292,4
-0,00075 0,027841 295,36 0,017936 294,16 0,0034513 292,85 0 292,4
-0,001 0,028322 295,41 0,01847 294,22 0,0092417 292,94 0,0067134 292,52
-0,00125 0,028322 295,41 0,01847 294,22 0,0092417 292,94 0,0067134 292,52
-0,0015 0,028322 295,41 0,01847 294,22 0,0092417 292,94 0,0067134 292,52
-0,00175 0,028932 295,47 0,019122 294,29 0,011566 293,04 0,010341 292,6
-0,002 0,028932 295,47 0,019122 294,29 0,011566 293,04 0,010341 292,6
-0,00225 0,028932 295,47 0,019122 294,29 0,011566 293,04 0,010341 292,6
-0,0025 0,029704 295,55 0,019915 294,38 0,01325 293,14 0,012387 292,69
-0,00275 0,029704 295,55 0,019915 294,38 0,01325 293,14 0,012387 292,69
-0,003 0,029704 295,55 0,019915 294,38 0,01325 293,14 0,012387 292,69
-0,00325 0,029704 295,55 0,019915 294,38 0,01325 293,14 0,012387 292,69
-0,0035 0,029704 295,55 0,019915 294,38 0,01325 293,14 0,012387 292,69
-0,00375 0,030677 295,65 0,020877 294,5 0,014722 293,27 0,01403 292,79
-0,004 0,030677 295,65 0,020877 294,5 0,014722 293,27 0,01403 292,79
-0,00425 0,030677 295,65 0,020877 294,5 0,014722 293,27 0,01403 292,79
-0,0045 0,030677 295,65 0,020877 294,5 0,014722 293,27 0,01403 292,79
-0,00475 0,030677 295,65 0,020877 294,5 0,014722 293,27 0,01403 292,79
-0,005 0,030677 295,65 0,020877 294,5 0,014722 293,27 0,01403 292,79
-0,00525 0,031905 295,77 0,022047 294,64 0,016213 293,42 0,015567 292,92
-0,0055 0,031905 295,77 0,022047 294,64 0,016213 293,42 0,015567 292,92
-0,00575 0,031905 295,77 0,022047 294,64 0,016213 293,42 0,015567 292,92
-0,006 0,031905 295,77 0,022047 294,64 0,016213 293,42 0,015567 292,92
-0,00625 0,031905 295,77 0,022047 294,64 0,016213 293,42 0,015567 292,92
-0,0065 0,031905 295,77 0,022047 294,64 0,016213 293,42 0,015567 292,92
-0,00675 0,031905 295,77 0,022047 294,64 0,016213 293,42 0,015567 292,92
-0,007 0,033456 295,92 0,02348 294,82 0,017923 293,61 0,017284 293,07
-0,00725 0,033456 295,92 0,02348 294,82 0,017923 293,61 0,017284 293,07
-0,0075 0,033456 295,92 0,02348 294,82 0,017923 293,61 0,017284 293,07
-0,00775 0,033456 295,92 0,02348 294,82 0,017923 293,61 0,017284 293,07
-0,008 0,033456 295,92 0,02348 294,82 0,017923 293,61 0,017284 293,07
-0,00825 0,033456 295,92 0,02348 294,82 0,017923 293,61 0,017284 293,07
-0,0085 0,033456 295,92 0,02348 294,82 0,017923 293,61 0,017284 293,07
-0,00875 0,033456 295,92 0,02348 294,82 0,017923 293,61 0,017284 293,07
-0,009 0,033456 295,92 0,02348 294,82 0,017923 293,61 0,017284 293,07
-0,00925 0,033456 295,92 0,02348 294,82 0,017923 293,61 0,017284 293,07
-0,0095 0,035396 296,1 0,02526 295,04 0,019952 293,84 0,019319 293,25
-0,00975 0,035396 296,1 0,02526 295,04 0,019952 293,84 0,019319 293,25
-0,01 0,035396 296,1 0,02526 295,04 0,019952 293,84 0,019319 293,25
-0,01025 0,035396 296,1 0,02526 295,04 0,019952 293,84 0,019319 293,25
-0,0105 0,035396 296,1 0,02526 295,04 0,019952 293,84 0,019319 293,25
-0,01075 0,035396 296,1 0,02526 295,04 0,019952 293,84 0,019319 293,25
-0,011 0,035396 296,1 0,02526 295,04 0,019952 293,84 0,019319 293,25
-0,01125 0,035396 296,1 0,02526 295,04 0,019952 293,84 0,019319 293,25
-0,0115 0,035396 296,1 0,02526 295,04 0,019952 293,84 0,019319 293,25
-0,01175 0,035396 296,1 0,02526 295,04 0,019952 293,84 0,019319 293,25
-0,012 0,035396 296,1 0,02526 295,04 0,019952 293,84 0,019319 293,25
-0,01225 0,035396 296,1 0,02526 295,04 0,019952 293,84 0,019319 293,25
-0,0125 0,035396 296,1 0,02526 295,04 0,019952 293,84 0,019319 293,25
-0,01275 0,03784 296,32 0,027532 295,29 0,022459 294,11 0,021831 293,47
-0,013 0,03784 296,32 0,027532 295,29 0,022459 294,11 0,021831 293,47
-0,01325 0,03784 296,32 0,027532 295,29 0,022459 294,11 0,021831 293,47
-0,0135 0,03784 296,32 0,027532 295,29 0,022459 294,11 0,021831 293,47
-0,01375 0,03784 296,32 0,027532 295,29 0,022459 294,11 0,021831 293,47
-0,014 0,03784 296,32 0,027532 295,29 0,022459 294,11 0,021831 293,47
-0,01425 0,03784 296,32 0,027532 295,29 0,022459 294,11 0,021831 293,47
-0,0145 0,03784 296,32 0,027532 295,29 0,022459 294,11 0,021831 293,47
-0,01475 0,03784 296,32 0,027532 295,29 0,022459 294,11 0,021831 293,47
-0,015 0,03784 296,32 0,027532 295,29 0,022459 294,11 0,021831 293,47
-0,01525 0,03784 296,32 0,027532 295,29 0,022459 294,11 0,021831 293,47
-0,0155 0,03784 296,32 0,027532 295,29 0,022459 294,11 0,021831 293,47
-0,01575 0,03784 296,32 0,027532 295,29 0,022459 294,11 0,021831 293,47
-0,016 0,03784 296,32 0,027532 295,29 0,022459 294,11 0,021831 293,47
-0,01625 0,03784 296,32 0,027532 295,29 0,022459 294,11 0,021831 293,47
-0,0165 0,03784 296,32 0,027532 295,29 0,022459 294,11 0,021831 293,47
-0,01675 0,03784 296,32 0,027532 295,29 0,022459 294,11 0,021831 293,47
-0,017 0,040972 296,56 0,030555 295,59 0,025713 294,44 0,025088 293,73
-0,01725 0,040972 296,56 0,030555 295,59 0,025713 294,44 0,025088 293,73
-0,0175 0,040972 296,56 0,030555 295,59 0,025713 294,44 0,025088 293,73
-0,01775 0,040972 296,56 0,030555 295,59 0,025713 294,44 0,025088 293,73
-0,018 0,040972 296,56 0,030555 295,59 0,025713 294,44 0,025088 293,73
-0,01825 0,040972 296,56 0,030555 295,59 0,025713 294,44 0,025088 293,73
-0,0185 0,040972 296,56 0,030555 295,59 0,025713 294,44 0,025088 293,73
-0,01875 0,040972 296,56 0,030555 295,59 0,025713 294,44 0,025088 293,73
-0,019 0,040972 296,56 0,030555 295,59 0,025713 294,44 0,025088 293,73
-0,01925 0,040972 296,56 0,030555 295,59 0,025713 294,44 0,025088 293,73
-0,0195 0,040972 296,56 0,030555 295,59 0,025713 294,44 0,025088 293,73
-0,01975 0,040972 296,56 0,030555 295,59 0,025713 294,44 0,025088 293,73
-0,02 0,040972 296,56 0,030555 295,59 0,025713 294,44 0,025088 293,73
-0,02025 0,040972 296,56 0,030555 295,59 0,025713 294,44 0,025088 293,73
-0,0205 0,040972 296,56 0,030555 295,59 0,025713 294,44 0,025088 293,73
-0,02075 0,040972 296,56 0,030555 295,59 0,025713 294,44 0,025088 293,73
-0,021 0,040972 296,56 0,030555 295,59 0,025713 294,44 0,025088 293,73
-0,02125 0,040972 296,56 0,030555 295,59 0,025713 294,44 0,025088 293,73
-0,0215 0,040972 296,56 0,030555 295,59 0,025713 294,44 0,025088 293,73
-0,02175 0,040972 296,56 0,030555 295,59 0,025713 294,44 0,025088 293,73
-0,022 0,040972 296,56 0,030555 295,59 0,025713 294,44 0,025088 293,73
-0,02225 0,040972 296,56 0,030555 295,59 0,025713 294,44 0,025088 293,73
-0,0225 0,04513 296,83 0,034724 295,94 0,030214 294,82 0,02958 294,04
-0,02275 0,04513 296,83 0,034724 295,94 0,030214 294,82 0,02958 294,04
-0,023 0,04513 296,83 0,034724 295,94 0,030214 294,82 0,02958 294,04
-0,02325 0,04513 296,83 0,034724 295,94 0,030214 294,82 0,02958 294,04
-0,0235 0,04513 296,83 0,034724 295,94 0,030214 294,82 0,02958 294,04
-0,02375 0,04513 296,83 0,034724 295,94 0,030214 294,82 0,02958 294,04
-0,024 0,04513 296,83 0,034724 295,94 0,030214 294,82 0,02958 294,04
-0,02425 0,04513 296,83 0,034724 295,94 0,030214 294,82 0,02958 294,04
-0,0245 0,04513 296,83 0,034724 295,94 0,030214 294,82 0,02958 294,04
-0,02475 0,04513 296,83 0,034724 295,94 0,030214 294,82 0,02958 294,04
-0,025 0,04513 296,83 0,034724 295,94 0,030214 294,82 0,02958 294,04
-0,02525 0,04513 296,83 0,034724 295,94 0,030214 294,82 0,02958 294,04
-0,0255 0,04513 296,83 0,034724 295,94 0,030214 294,82 0,02958 294,04
-0,02575 0,04513 296,83 0,034724 295,94 0,030214 294,82 0,02958 294,04
-0,026 0,04513 296,83 0,034724 295,94 0,030214 294,82 0,02958 294,04
-0,02625 0,04513 296,83 0,034724 295,94 0,030214 294,82 0,02958 294,04
-0,0265 0,04513 296,83 0,034724 295,94 0,030214 294,82 0,02958 294,04
-0,02675 0,04513 296,83 0,034724 295,94 0,030214 294,82 0,02958 294,04
-0,027 0,04513 296,83 0,034724 295,94 0,030214 294,82 0,02958 294,04
-0,02725 0,04513 296,83 0,034724 295,94 0,030214 294,82 0,02958 294,04
-0,0275 0,04513 296,83 0,034724 295,94 0,030214 294,82 0,02958 294,04
-0,02775 0,04513 296,83 0,034724 295,94 0,030214 294,82 0,02958 294,04
-0,028 0,04513 296,83 0,034724 295,94 0,030214 294,82 0,02958 294,04
-0,02825 0,04513 296,83 0,034724 295,94 0,030214 294,82 0,02958 294,04
-0,0285 0,04513 296,83 0,034724 295,94 0,030214 294,82 0,02958 294,04
-0,02875 0,04513 296,83 0,034724 295,94 0,030214 294,82 0,02958 294,04
-0,029 0,04513 296,83 0,034724 295,94 0,030214 294,82 0,02958 294,04
-0,02925 0,04513 296,83 0,034724 295,94 0,030214 294,82 0,02958 294,04
-0,0295 0,051022 297,12 0,040915 296,32 0,03695 295,25 0,036269 294,4
-0,02975 0,051022 297,12 0,040915 296,32 0,03695 295,25 0,036269 294,4
-0,03 0,051022 297,12 0,040915 296,32 0,03695 295,25 0,036269 294,4
-0,03025 0,051022 297,12 0,040915 296,32 0,03695 295,25 0,036269 294,4
-0,0305 0,051022 297,12 0,040915 296,32 0,03695 295,25 0,036269 294,4
-0,03075 0,051022 297,12 0,040915 296,32 0,03695 295,25 0,036269 294,4
-0,031 0,051022 297,12 0,040915 296,32 0,03695 295,25 0,036269 294,4
-0,03125 0,051022 297,12 0,040915 296,32 0,03695 295,25 0,036269 294,4
-0,0315 0,051022 297,12 0,040915 296,32 0,03695 295,25 0,036269 294,4
-0,03175 0,051022 297,12 0,040915 296,32 0,03695 295,25 0,036269 294,4
-0,032 0,051022 297,12 0,040915 296,32 0,03695 295,25 0,036269 294,4
-0,03225 0,051022 297,12 0,040915 296,32 0,03695 295,25 0,036269 294,4
-0,0325 0,051022 297,12 0,040915 296,32 0,03695 295,25 0,036269 294,4
-0,03275 0,051022 297,12 0,040915 296,32 0,03695 295,25 0,036269 294,4
-0,033 0,051022 297,12 0,040915 296,32 0,03695 295,25 0,036269 294,4
-0,03325 0,051022 297,12 0,040915 296,32 0,03695 295,25 0,036269 294,4
-0,0335 0,051022 297,12 0,040915 296,32 0,03695 295,25 0,036269 294,4
-0,03375 0,051022 297,12 0,040915 296,32 0,03695 295,25 0,036269 294,4
-0,034 0,051022 297,12 0,040915 296,32 0,03695 295,25 0,036269 294,4
-0,03425 0,051022 297,12 0,040915 296,32 0,03695 295,25 0,036269 294,4
-0,0345 0,051022 297,12 0,040915 296,32 0,03695 295,25 0,036269 294,4
-0,03475 0,051022 297,12 0,040915 296,32 0,03695 295,25 0,036269 294,4
-0,035 0,051022 297,12 0,040915 296,32 0,03695 295,25 0,036269 294,4
-0,03525 0,051022 297,12 0,040915 296,32 0,03695 295,25 0,036269 294,4
-0,0355 0,051022 297,12 0,040915 296,32 0,03695 295,25 0,036269 294,4
-0,03575 0,051022 297,12 0,040915 296,32 0,03695 295,25 0,036269 294,4
-0,036 0,051022 297,12 0,040915 296,32 0,03695 295,25 0,036269 294,4
-0,03625 0,051022 297,12 0,040915 296,32 0,03695 295,25 0,036269 294,4
-0,0365 0,051022 297,12 0,040915 296,32 0,03695 295,25 0,036269 294,4
-0,03675 0,051022 297,12 0,040915 296,32 0,03695 295,25 0,036269 294,4
-0,037 0,051022 297,12 0,040915 296,32 0,03695 295,25 0,036269 294,4
-0,03725 0,051022 297,12 0,040915 296,32 0,03695 295,25 0,036269 294,4
-0,0375 0,051022 297,12 0,040915 296,32 0,03695 295,25 0,036269 294,4
-0,03775 0,051022 297,12 0,040915 296,32 0,03695 295,25 0,036269 294,4
-0,038 0,051022 297,12 0,040915 296,32 0,03695 295,25 0,036269 294,4
-0,03825 0,051022 297,12 0,040915 296,32 0,03695 295,25 0,036269 294,4
-0,0385 0,051022 297,12 0,040915 296,32 0,03695 295,25 0,036269 294,4
-0,03875 0,060325 297,41 0,051186 296,72 0,048046 295,72 0,047226 294,79
-0,039 0,060325 297,41 0,051186 296,72 0,048046 295,72 0,047226 294,79
-0,03925 0,060325 297,41 0,051186 296,72 0,048046 295,72 0,047226 294,79
-0,0395 0,060325 297,41 0,051186 296,72 0,048046 295,72 0,047226 294,79
-0,03975 0,060325 297,41 0,051186 296,72 0,048046 295,72 0,047226 294,79
-0,04 0,060325 297,41 0,051186 296,72 0,048046 295,72 0,047226 294,79
-0,04025 0,060325 297,41 0,051186 296,72 0,048046 295,72 0,047226 294,79
-0,0405 0,060325 297,41 0,051186 296,72 0,048046 295,72 0,047226 294,79
-0,04075 0,060325 297,41 0,051186 296,72 0,048046 295,72 0,047226 294,79
-0,041 0,060325 297,41 0,051186 296,72 0,048046 295,72 0,047226 294,79
-0,04125 0,060325 297,41 0,051186 296,72 0,048046 295,72 0,047226 294,79
-0,0415 0,060325 297,41 0,051186 296,72 0,048046 295,72 0,047226 294,79
-0,04175 0,060325 297,41 0,051186 296,72 0,048046 295,72 0,047226 294,79
-0,042 0,060325 297,41 0,051186 296,72 0,048046 295,72 0,047226 294,79
-0,04225 0,060325 297,41 0,051186 296,72 0,048046 295,72 0,047226 294,79
-0,0425 0,060325 297,41 0,051186 296,72 0,048046 295,72 0,047226 294,79
-0,04275 0,060325 297,41 0,051186 296,72 0,048046 295,72 0,047226 294,79
-0,043 0,060325 297,41 0,051186 296,72 0,048046 295,72 0,047226 294,79
-0,04325 0,060325 297,41 0,051186 296,72 0,048046 295,72 0,047226 294,79
-0,0435 0,060325 297,41 0,051186 296,72 0,048046 295,72 0,047226 294,79
-0,04375 0,060325 297,41 0,051186 296,72 0,048046 295,72 0,047226 294,79
-0,044 0,060325 297,41 0,051186 296,72 0,048046 295,72 0,047226 294,79
-0,04425 0,060325 297,41 0,051186 296,72 0,048046 295,72 0,047226 294,79
-0,0445 0,060325 297,41 0,051186 296,72 0,048046 295,72 0,047226 294,79
-0,04475 0,060325 297,41 0,051186 296,72 0,048046 295,72 0,047226 294,79
-0,045 0,060325 297,41 0,051186 296,72 0,048046 295,72 0,047226 294,79
-0,04525 0,060325 297,41 0,051186 296,72 0,048046 295,72 0,047226 294,79
-0,0455 0,060325 297,41 0,051186 296,72 0,048046 295,72 0,047226 294,79
-0,04575 0,060325 297,41 0,051186 296,72 0,048046 295,72 0,047226 294,79
-0,046 0,060325 297,41 0,051186 296,72 0,048046 295,72 0,047226 294,79
-0,04625 0,060325 297,41 0,051186 296,72 0,048046 295,72 0,047226 294,79
-0,0465 0,060325 297,41 0,051186 296,72 0,048046 295,72 0,047226 294,79
-0,04675 0,060325 297,41 0,051186 296,72 0,048046 295,72 0,047226 294,79
-0,047 0,060325 297,41 0,051186 296,72 0,048046 295,72 0,047226 294,79
-0,04725 0,060325 297,41 0,051186 296,72 0,048046 295,72 0,047226 294,79
-0,0475 0,060325 297,41 0,051186 296,72 0,048046 295,72 0,047226 294,79
-0,04775 0,060325 297,41 0,051186 296,72 0,048046 295,72 0,047226 294,79
-0,048 0,060325 297,41 0,051186 296,72 0,048046 295,72 0,047226 294,79
-0,04825 0,060325 297,41 0,051186 296,72 0,048046 295,72 0,047226 294,79
-0,0485 0,060325 297,41 0,051186 296,72 0,048046 295,72 0,047226 294,79
-0,04875 0,060325 297,41 0,051186 296,72 0,048046 295,72 0,047226 294,79
-0,049 0,060325 297,41 0,051186 296,72 0,048046 295,72 0,047226 294,79
-0,04925 0,060325 297,41 0,051186 296,72 0,048046 295,72 0,047226 294,79
-0,0495 0,060325 297,41 0,051186 296,72 0,048046 295,72 0,047226 294,79
-0,04975 0,060325 297,41 0,051186 296,72 0,048046 295,72 0,047226 294,79
-0,05 0,060325 297,41 0,051186 296,72 0,048046 295,72 0,047226 294,79
-0,05025 0,060325 297,41 0,051186 296,72 0,048046 295,72 0,047226 294,79
-0,0505 0,060325 297,41 0,051186 296,72 0,048046 295,72 0,047226 294,79
-0,05075 0,077524 297,67 0,070633 297,11 0,068571 296,21 0,067408 295,22
-0,051 0,077524 297,67 0,070633 297,11 0,068571 296,21 0,067408 295,22
-0,05125 0,077524 297,67 0,070633 297,11 0,068571 296,21 0,067408 295,22
-0,0515 0,077524 297,67 0,070633 297,11 0,068571 296,21 0,067408 295,22
-0,05175 0,077524 297,67 0,070633 297,11 0,068571 296,21 0,067408 295,22
-0,052 0,077524 297,67 0,070633 297,11 0,068571 296,21 0,067408 295,22
-0,05225 0,077524 297,67 0,070633 297,11 0,068571 296,21 0,067408 295,22
-0,0525 0,077524 297,67 0,070633 297,11 0,068571 296,21 0,067408 295,22
-0,05275 0,077524 297,67 0,070633 297,11 0,068571 296,21 0,067408 295,22
-0,053 0,077524 297,67 0,070633 297,11 0,068571 296,21 0,067408 295,22
-0,05325 0,077524 297,67 0,070633 297,11 0,068571 296,21 0,067408 295,22
-0,0535 0,077524 297,67 0,070633 297,11 0,068571 296,21 0,067408 295,22
-0,05375 0,077524 297,67 0,070633 297,11 0,068571 296,21 0,067408 295,22
-0,054 0,077524 297,67 0,070633 297,11 0,068571 296,21 0,067408 295,22
-0,05425 0,077524 297,67 0,070633 297,11 0,068571 296,21 0,067408 295,22
-0,0545 0,077524 297,67 0,070633 297,11 0,068571 296,21 0,067408 295,22
-0,05475 0,077524 297,67 0,070633 297,11 0,068571 296,21 0,067408 295,22
-0,055 0,077524 297,67 0,070633 297,11 0,068571 296,21 0,067408 295,22
-0,05525 0,077524 297,67 0,070633 297,11 0,068571 296,21 0,067408 295,22
-0,0555 0,077524 297,67 0,070633 297,11 0,068571 296,21 0,067408 295,22
-0,05575 0,077524 297,67 0,070633 297,11 0,068571 296,21 0,067408 295,22
-0,056 0,077524 297,67 0,070633 297,11 0,068571 296,21 0,067408 295,22
-0,05625 0,077524 297,67 0,070633 297,11 0,068571 296,21 0,067408 295,22
-0,0565 0,077524 297,67 0,070633 297,11 0,068571 296,21 0,067408 295,22
-0,05675 0,077524 297,67 0,070633 297,11 0,068571 296,21 0,067408 295,22
-0,057 0,077524 297,67 0,070633 297,11 0,068571 296,21 0,067408 295,22
-0,05725 0,077524 297,67 0,070633 297,11 0,068571 296,21 0,067408 295,22
-0,0575 0,077524 297,67 0,070633 297,11 0,068571 296,21 0,067408 295,22
-0,05775 0,077524 297,67 0,070633 297,11 0,068571 296,21 0,067408 295,22
-0,058 0,077524 297,67 0,070633 297,11 0,068571 296,21 0,067408 295,22
-0,05825 0,077524 297,67 0,070633 297,11 0,068571 296,21 0,067408 295,22
-0,0585 0,077524 297,67 0,070633 297,11 0,068571 296,21 0,067408 295,22
-0,05875 0,077524 297,67 0,070633 297,11 0,068571 296,21 0,067408 295,22
-0,059 0,077524 297,67 0,070633 297,11 0,068571 296,21 0,067408 295,22
-0,05925 0,077524 297,67 0,070633 297,11 0,068571 296,21 0,067408 295,22
-0,0595 0,077524 297,67 0,070633 297,11 0,068571 296,21 0,067408 295,22
-0,05975 0,077524 297,67 0,070633 297,11 0,068571 296,21 0,067408 295,22
-0,06 0,077524 297,67 0,070633 297,11 0,068571 296,21 0,067408 295,22
-0,06025 0,077524 297,67 0,070633 297,11 0,068571 296,21 0,067408 295,22
-0,0605 0,077524 297,67 0,070633 297,11 0,068571 296,21 0,067408 295,22
-0,06075 0,077524 297,67 0,070633 297,11 0,068571 296,21 0,067408 295,22
-0,061 0,077524 297,67 0,070633 297,11 0,068571 296,21 0,067408 295,22
-0,06125 0,077524 297,67 0,070633 297,11 0,068571 296,21 0,067408 295,22
-0,0615 0,077524 297,67 0,070633 297,11 0,068571 296,21 0,067408 295,22
-0,06175 0,077524 297,67 0,070633 297,11 0,068571 296,21 0,067408 295,22
-0,062 0,077524 297,67 0,070633 297,11 0,068571 296,21 0,067408 295,22
-0,06225 0,077524 297,67 0,070633 297,11 0,068571 296,21 0,067408 295,22
-0,0625 0,077524 297,67 0,070633 297,11 0,068571 296,21 0,067408 295,22
-0,06275 0,077524 297,67 0,070633 297,11 0,068571 296,21 0,067408 295,22
-0,063 0,077524 297,67 0,070633 297,11 0,068571 296,21 0,067408 295,22
-0,06325 0,077524 297,67 0,070633 297,11 0,068571 296,21 0,067408 295,22
-0,0635 0,077524 297,67 0,070633 297,11 0,068571 296,21 0,067408 295,22
-0,06375 0,077524 297,67 0,070633 297,11 0,068571 296,21 0,067408 295,22
-0,064 0,077524 297,67 0,070633 297,11 0,068571 296,21 0,067408 295,22
-0,06425 0,077524 297,67 0,070633 297,11 0,068571 296,21 0,067408 295,22
-0,0645 0,077524 297,67 0,070633 297,11 0,068571 296,21 0,067408 295,22
-0,06475 0,077524 297,67 0,070633 297,11 0,068571 296,21 0,067408 295,22
-0,065 0,077524 297,67 0,070633 297,11 0,068571 296,21 0,067408 295,22
-0,06525 0,077524 297,67 0,070633 297,11 0,068571 296,21 0,067408 295,22
-0,0655 0,077524 297,67 0,070633 297,11 0,068571 296,21 0,067408 295,22
-0,06575 0,077524 297,67 0,070633 297,11 0,068571 296,21 0,067408 295,22
-0,066 0,077524 297,67 0,070633 297,11 0,068571 296,21 0,067408 295,22
-0,06625 0,077524 297,67 0,070633 297,11 0,068571 296,21 0,067408 295,22
-0,0665 0,11596 297,88 0,11314 297,46 0,11219 296,69 0,1102 295,66
-0,06675 0,11596 297,88 0,11314 297,46 0,11219 296,69 0,1102 295,66
-0,067 0,11596 297,88 0,11314 297,46 0,11219 296,69 0,1102 295,66
-0,06725 0,11596 297,88 0,11314 297,46 0,11219 296,69 0,1102 295,66
-0,0675 0,11596 297,88 0,11314 297,46 0,11219 296,69 0,1102 295,66
-0,06775 0,11596 297,88 0,11314 297,46 0,11219 296,69 0,1102 295,66
-0,068 0,11596 297,88 0,11314 297,46 0,11219 296,69 0,1102 295,66
-0,06825 0,11596 297,88 0,11314 297,46 0,11219 296,69 0,1102 295,66
-0,0685 0,11596 297,88 0,11314 297,46 0,11219 296,69 0,1102 295,66
-0,06875 0,11596 297,88 0,11314 297,46 0,11219 296,69 0,1102 295,66
-0,069 0,11596 297,88 0,11314 297,46 0,11219 296,69 0,1102 295,66
-0,06925 0,11596 297,88 0,11314 297,46 0,11219 296,69 0,1102 295,66
-0,0695 0,11596 297,88 0,11314 297,46 0,11219 296,69 0,1102 295,66
-0,06975 0,11596 297,88 0,11314 297,46 0,11219 296,69 0,1102 295,66
-0,07 0,11596 297,88 0,11314 297,46 0,11219 296,69 0,1102 295,66
-0,07025 0,11596 297,88 0,11314 297,46 0,11219 296,69 0,1102 295,66
-0,0705 0,11596 297,88 0,11314 297,46 0,11219 296,69 0,1102 295,66
-0,07075 0,11596 297,88 0,11314 297,46 0,11219 296,69 0,1102 295,66
-0,071 0,11596 297,88 0,11314 297,46 0,11219 296,69 0,1102 295,66
-0,07125 0,11596 297,88 0,11314 297,46 0,11219 296,69 0,1102 295,66
-0,0715 0,11596 297,88 0,11314 297,46 0,11219 296,69 0,1102 295,66
-0,07175 0,11596 297,88 0,11314 297,46 0,11219 296,69 0,1102 295,66
-0,072 0,11596 297,88 0,11314 297,46 0,11219 296,69 0,1102 295,66
-0,07225 0,11596 297,88 0,11314 297,46 0,11219 296,69 0,1102 295,66
-0,0725 0,11596 297,88 0,11314 297,46 0,11219 296,69 0,1102 295,66
-0,07275 0,11596 297,88 0,11314 297,46 0,11219 296,69 0,1102 295,66
-0,073 0,11596 297,88 0,11314 297,46 0,11219 296,69 0,1102 295,66
-0,07325 0,11596 297,88 0,11314 297,46 0,11219 296,69 0,1102 295,66
-0,0735 0,11596 297,88 0,11314 297,46 0,11219 296,69 0,1102 295,66
-0,07375 0,11596 297,88 0,11314 297,46 0,11219 296,69 0,1102 295,66
-0,074 0,11596 297,88 0,11314 297,46 0,11219 296,69 0,1102 295,66
-0,07425 0,11596 297,88 0,11314 297,46 0,11219 296,69 0,1102 295,66
-0,0745 0,11596 297,88 0,11314 297,46 0,11219 296,69 0,1102 295,66
-0,07475 0,11596 297,88 0,11314 297,46 0,11219 296,69 0,1102 295,66
-0,075 0,11596 297,88 0,11314 297,46 0,11219 296,69 0,1102 295,66
-0,07525 0,11596 297,88 0,11314 297,46 0,11219 296,69 0,1102 295,66
-0,0755 0,11596 297,88 0,11314 297,46 0,11219 296,69 0,1102 295,66
-0,07575 0,11596 297,88 0,11314 297,46 0,11219 296,69 0,1102 295,66
-0,076 0,11596 297,88 0,11314 297,46 0,11219 296,69 0,1102 295,66
-0,07625 0,11596 297,88 0,11314 297,46 0,11219 296,69 0,1102 295,66
-0,0765 0,11596 297,88 0,11314 297,46 0,11219 296,69 0,1102 295,66
-0,07675 0,11596 297,88 0,11314 297,46 0,11219 296,69 0,1102 295,66
-0,077 0,11596 297,88 0,11314 297,46 0,11219 296,69 0,1102 295,66
-0,07725 0,11596 297,88 0,11314 297,46 0,11219 296,69 0,1102 295,66
-0,0775 0,11596 297,88 0,11314 297,46 0,11219 296,69 0,1102 295,66
-0,07775 0,11596 297,88 0,11314 297,46 0,11219 296,69 0,1102 295,66
-0,078 0,11596 297,88 0,11314 297,46 0,11219 296,69 0,1102 295,66
-0,07825 0,11596 297,88 0,11314 297,46 0,11219 296,69 0,1102 295,66
-0,0785 0,11596 297,88 0,11314 297,46 0,11219 296,69 0,1102 295,66
-0,07875 0,11596 297,88 0,11314 297,46 0,11219 296,69 0,1102 295,66
-0,079 0,11596 297,88 0,11314 297,46 0,11219 296,69 0,1102 295,66
-0,07925 0,11596 297,88 0,11314 297,46 0,11219 296,69 0,1102 295,66
-0,0795 0,11596 297,88 0,11314 297,46 0,11219 296,69 0,1102 295,66
-0,07975 0,11596 297,88 0,11314 297,46 0,11219 296,69 0,1102 295,66
-0,08 0,11596 297,88 0,11314 297,46 0,11219 296,69 0,1102 295,66
-0,08025 0,11596 297,88 0,11314 297,46 0,11219 296,69 0,1102 295,66
-0,0805 0,11596 297,88 0,11314 297,46 0,11219 296,69 0,1102 295,66
-0,08075 0,11596 297,88 0,11314 297,46 0,11219 296,69 0,1102 295,66
-0,081 0,11596 297,88 0,11314 297,46 0,11219 296,69 0,1102 295,66
-0,08125 0,11596 297,88 0,11314 297,46 0,11219 296,69 0,1102 295,66
-0,0815 0,11596 297,88 0,11314 297,46 0,11219 296,69 0,1102 295,66
-0,08175 0,11596 297,88 0,11314 297,46 0,11219 296,69 0,1102 295,66
-0,082 0,11596 297,88 0,11314 297,46 0,11219 296,69 0,1102 295,66
-0,08225 0,11596 297,88 0,11314 297,46 0,11219 296,69 0,1102 295,66
-0,0825 0,11596 297,88 0,11314 297,46 0,11219 296,69 0,1102 295,66
-0,08275 0,11596 297,88 0,11314 297,46 0,11219 296,69 0,1102 295,66
-0,083 0,11596 297,88 0,11314 297,46 0,11219 296,69 0,1102 295,66
-0,08325 0,11596 297,88 0,11314 297,46 0,11219 296,69 0,1102 295,66
-0,0835 0,11596 297,88 0,11314 297,46 0,11219 296,69 0,1102 295,66
-0,08375 0,11596 297,88 0,11314 297,46 0,11219 296,69 0,1102 295,66
-0,084 0,11596 297,88 0,11314 297,46 0,11219 296,69 0,1102 295,66
-0,08425 0,11596 297,88 0,11314 297,46 0,11219 296,69 0,1102 295,66
-0,0845 0,11596 297,88 0,11314 297,46 0,11219 296,69 0,1102 295,66
-0,08475 0,11596 297,88 0,11314 297,46 0,11219 296,69 0,1102 295,66
-0,085 0,11596 297,88 0,11314 297,46 0,11219 296,69 0,1102 295,66
-0,08525 0,11596 297,88 0,11314 297,46 0,11219 296,69 0,1102 295,66
-0,0855 0,11596 297,88 0,11314 297,46 0,11219 296,69 0,1102 295,66
-0,08575 0,11596 297,88 0,11314 297,46 0,11219 296,69 0,1102 295,66
-0,086 0,11596 297,88 0,11314 297,46 0,11219 296,69 0,1102 295,66
-0,08625 0,11596 297,88 0,11314 297,46 0,11219 296,69 0,1102 295,66
-0,0865 0,11596 297,88 0,11314 297,46 0,11219 296,69 0,1102 295,66
-0,08675 0,21744 298,03 0,22013 297,75 0,21997 297,14 0,21604 296,11
-0,087 0,21744 298,03 0,22013 297,75 0,21997 297,14 0,21604 296,11
-0,08725 0,21744 298,03 0,22013 297,75 0,21997 297,14 0,21604 296,11
-0,0875 0,21744 298,03 0,22013 297,75 0,21997 297,14 0,21604 296,11
-0,08775 0,21744 298,03 0,22013 297,75 0,21997 297,14 0,21604 296,11
-0,088 0,21744 298,03 0,22013 297,75 0,21997 297,14 0,21604 296,11
-0,08825 0,21744 298,03 0,22013 297,75 0,21997 297,14 0,21604 296,11
-0,0885 0,21744 298,03 0,22013 297,75 0,21997 297,14 0,21604 296,11
-0,08875 0,21744 298,03 0,22013 297,75 0,21997 297,14 0,21604 296,11
-0,089 0,21744 298,03 0,22013 297,75 0,21997 297,14 0,21604 296,11
-0,08925 0,21744 298,03 0,22013 297,75 0,21997 297,14 0,21604 296,11
-0,0895 0,21744 298,03 0,22013 297,75 0,21997 297,14 0,21604 296,11
-0,08975 0,21744 298,03 0,22013 297,75 0,21997 297,14 0,21604 296,11
-0,09 0,21744 298,03 0,22013 297,75 0,21997 297,14 0,21604 296,11
-0,09025 0,21744 298,03 0,22013 297,75 0,21997 297,14 0,21604 296,11
-0,0905 0,21744 298,03 0,22013 297,75 0,21997 297,14 0,21604 296,11
-0,09075 0,21744 298,03 0,22013 297,75 0,21997 297,14 0,21604 296,11
-0,091 0,21744 298,03 0,22013 297,75 0,21997 297,14 0,21604 296,11
-0,09125 0,21744 298,03 0,22013 297,75 0,21997 297,14 0,21604 296,11
-0,0915 0,21744 298,03 0,22013 297,75 0,21997 297,14 0,21604 296,11
-0,09175 0,21744 298,03 0,22013 297,75 0,21997 297,14 0,21604 296,11
-0,092 0,21744 298,03 0,22013 297,75 0,21997 297,14 0,21604 296,11
-0,09225 0,21744 298,03 0,22013 297,75 0,21997 297,14 0,21604 296,11
-0,0925 0,21744 298,03 0,22013 297,75 0,21997 297,14 0,21604 296,11
-0,09275 0,21744 298,03 0,22013 297,75 0,21997 297,14 0,21604 296,11
-0,093 0,21744 298,03 0,22013 297,75 0,21997 297,14 0,21604 296,11
-0,09325 0,21744 298,03 0,22013 297,75 0,21997 297,14 0,21604 296,11
-0,0935 0,21744 298,03 0,22013 297,75 0,21997 297,14 0,21604 296,11
-0,09375 0,21744 298,03 0,22013 297,75 0,21997 297,14 0,21604 296,11
-0,094 0,21744 298,03 0,22013 297,75 0,21997 297,14 0,21604 296,11
-0,09425 0,21744 298,03 0,22013 297,75 0,21997 297,14 0,21604 296,11
-0,0945 0,21744 298,03 0,22013 297,75 0,21997 297,14 0,21604 296,11
-0,09475 0,21744 298,03 0,22013 297,75 0,21997 297,14 0,21604 296,11
-0,095 0,21744 298,03 0,22013 297,75 0,21997 297,14 0,21604 296,11
-0,09525 0,21744 298,03 0,22013 297,75 0,21997 297,14 0,21604 296,11
-0,0955 0,21744 298,03 0,22013 297,75 0,21997 297,14 0,21604 296,11
-0,09575 0,21744 298,03 0,22013 297,75 0,21997 297,14 0,21604 296,11
-0,096 0,21744 298,03 0,22013 297,75 0,21997 297,14 0,21604 296,11
-0,09625 0,21744 298,03 0,22013 297,75 0,21997 297,14 0,21604 296,11
-0,0965 0,21744 298,03 0,22013 297,75 0,21997 297,14 0,21604 296,11
-0,09675 0,21744 298,03 0,22013 297,75 0,21997 297,14 0,21604 296,11
-0,097 0,21744 298,03 0,22013 297,75 0,21997 297,14 0,21604 296,11
-0,09725 0,21744 298,03 0,22013 297,75 0,21997 297,14 0,21604 296,11
-0,0975 0,21744 298,03 0,22013 297,75 0,21997 297,14 0,21604 296,11
-0,09775 0,21744 298,03 0,22013 297,75 0,21997 297,14 0,21604 296,11
-0,098 0,21744 298,03 0,22013 297,75 0,21997 297,14 0,21604 296,11
-0,09825 0,21744 298,03 0,22013 297,75 0,21997 297,14 0,21604 296,11
-0,0985 0,21744 298,03 0,22013 297,75 0,21997 297,14 0,21604 296,11
-0,09875 0,21744 298,03 0,22013 297,75 0,21997 297,14 0,21604 296,11
-0,099 0,21744 298,03 0,22013 297,75 0,21997 297,14 0,21604 296,11
-0,09925 0,21744 298,03 0,22013 297,75 0,21997 297,14 0,21604 296,11
-0,0995 0,21744 298,03 0,22013 297,75 0,21997 297,14 0,21604 296,11
-0,09975 0,21744 298,03 0,22013 297,75 0,21997 297,14 0,21604 296,11
-0,1 0,21744 298,03 0,22013 297,75 0,21997 297,14 0,21604 296,11
-0,10025 0,21744 298,03 0,22013 297,75 0,21997 297,14 0,21604 296,11
-0,1005 0,21744 298,03 0,22013 297,75 0,21997 297,14 0,21604 296,11
-0,10075 0,21744 298,03 0,22013 297,75 0,21997 297,14 0,21604 296,11
-0,101 0,21744 298,03 0,22013 297,75 0,21997 297,14 0,21604 296,11
-0,10125 0,21744 298,03 0,22013 297,75 0,21997 297,14 0,21604 296,11
-0,1015 0,21744 298,03 0,22013 297,75 0,21997 297,14 0,21604 296,11
-0,10175 0,21744 298,03 0,22013 297,75 0,21997 297,14 0,21604 296,11
-0,102 0,21744 298,03 0,22013 297,75 0,21997 297,14 0,21604 296,11
-0,10225 0,21744 298,03 0,22013 297,75 0,21997 297,14 0,21604 296,11
-0,1025 0,21744 298,03 0,22013 297,75 0,21997 297,14 0,21604 296,11
-0,10275 0,21744 298,03 0,22013 297,75 0,21997 297,14 0,21604 296,11
-0,103 0,21744 298,03 0,22013 297,75 0,21997 297,14 0,21604 296,11
-0,10325 0,21744 298,03 0,22013 297,75 0,21997 297,14 0,21604 296,11
-0,1035 0,21744 298,03 0,22013 297,75 0,21997 297,14 0,21604 296,11
-0,10375 0,21744 298,03 0,22013 297,75 0,21997 297,14 0,21604 296,11
-0,104 0,21744 298,03 0,22013 297,75 0,21997 297,14 0,21604 296,11
-0,10425 0,21744 298,03 0,22013 297,75 0,21997 297,14 0,21604 296,11
-0,1045 0,21744 298,03 0,22013 297,75 0,21997 297,14 0,21604 296,11
-0,10475 0,21744 298,03 0,22013 297,75 0,21997 297,14 0,21604 296,11
-0,105 0,21744 298,03 0,22013 297,75 0,21997 297,14 0,21604 296,11
-0,10525 0,21744 298,03 0,22013 297,75 0,21997 297,14 0,21604 296,11
-0,1055 0,21744 298,03 0,22013 297,75 0,21997 297,14 0,21604 296,11
-0,10575 0,21744 298,03 0,22013 297,75 0,21997 297,14 0,21604 296,11
-0,106 0,21744 298,03 0,22013 297,75 0,21997 297,14 0,21604 296,11
-0,10625 0,21744 298,03 0,22013 297,75 0,21997 297,14 0,21604 296,11
-0,1065 0,21744 298,03 0,22013 297,75 0,21997 297,14 0,21604 296,11
-0,10675 0,21744 298,03 0,22013 297,75 0,21997 297,14 0,21604 296,11
-0,107 0,21744 298,03 0,22013 297,75 0,21997 297,14 0,21604 296,11
-0,10725 0,21744 298,03 0,22013 297,75 0,21997 297,14 0,21604 296,11
-0,1075 0,21744 298,03 0,22013 297,75 0,21997 297,14 0,21604 296,11
-0,10775 0,21744 298,03 0,22013 297,75 0,21997 297,14 0,21604 296,11
-0,108 0,21744 298,03 0,22013 297,75 0,21997 297,14 0,21604 296,11
-0,10825 0,21744 298,03 0,22013 297,75 0,21997 297,14 0,21604 296,11
-0,1085 0,21744 298,03 0,22013 297,75 0,21997 297,14 0,21604 296,11
-0,10875 0,21744 298,03 0,22013 297,75 0,21997 297,14 0,21604 296,11
-0,109 0,21744 298,03 0,22013 297,75 0,21997 297,14 0,21604 296,11
-0,10925 0,21744 298,03 0,22013 297,75 0,21997 297,14 0,21604 296,11
-0,1095 0,21744 298,03 0,22013 297,75 0,21997 297,14 0,21604 296,11
-0,10975 0,21744 298,03 0,22013 297,75 0,21997 297,14 0,21604 296,11
-0,11 0,21744 298,03 0,22013 297,75 0,21997 297,14 0,21604 296,11
-0,11025 0,21744 298,03 0,22013 297,75 0,21997 297,14 0,21604 296,11
-0,1105 0,21744 298,03 0,22013 297,75 0,21997 297,14 0,21604 296,11
-0,11075 0,21744 298,03 0,22013 297,75 0,21997 297,14 0,21604 296,11
-0,111 0,21744 298,03 0,22013 297,75 0,21997 297,14 0,21604 296,11
-0,11125 0,21744 298,03 0,22013 297,75 0,21997 297,14 0,21604 296,11
-0,1115 0,21744 298,03 0,22013 297,75 0,21997 297,14 0,21604 296,11
-0,11175 0,21744 298,03 0,22013 297,75 0,21997 297,14 0,21604 296,11
-0,112 0,21744 298,03 0,22013 297,75 0,21997 297,14 0,21604 296,11
-0,11225 0,21744 298,03 0,22013 297,75 0,21997 297,14 0,21604 296,11
-0,1125 0,21744 298,03 0,22013 297,75 0,21997 297,14 0,21604 296,11
-0,11275 0,21744 298,03 0,22013 297,75 0,21997 297,14 0,21604 296,11
-0,113 0,21744 298,03 0,22013 297,75 0,21997 297,14 0,21604 296,11
-0,11325 0,48891 298,11 0,49662 297,96 0,49688 297,54 0,48983 296,55
-0,1135 0,48891 298,11 0,49662 297,96 0,49688 297,54 0,48983 296,55
-0,11375 0,48891 298,11 0,49662 297,96 0,49688 297,54 0,48983 296,55
-0,114 0,48891 298,11 0,49662 297,96 0,49688 297,54 0,48983 296,55
-0,11425 0,48891 298,11 0,49662 297,96 0,49688 297,54 0,48983 296,55
-0,1145 0,48891 298,11 0,49662 297,96 0,49688 297,54 0,48983 296,55
-0,11475 0,48891 298,11 0,49662 297,96 0,49688 297,54 0,48983 296,55
-0,115 0,48891 298,11 0,49662 297,96 0,49688 297,54 0,48983 296,55
-0,11525 0,48891 298,11 0,49662 297,96 0,49688 297,54 0,48983 296,55
-0,1155 0,48891 298,11 0,49662 297,96 0,49688 297,54 0,48983 296,55
-0,11575 0,48891 298,11 0,49662 297,96 0,49688 297,54 0,48983 296,55
-0,116 0,48891 298,11 0,49662 297,96 0,49688 297,54 0,48983 296,55
-0,11625 0,48891 298,11 0,49662 297,96 0,49688 297,54 0,48983 296,55
-0,1165 0,48891 298,11 0,49662 297,96 0,49688 297,54 0,48983 296,55
-0,11675 0,48891 298,11 0,49662 297,96 0,49688 297,54 0,48983 296,55
-0,117 0,48891 298,11 0,49662 297,96 0,49688 297,54 0,48983 296,55
-0,11725 0,48891 298,11 0,49662 297,96 0,49688 297,54 0,48983 296,55
-0,1175 0,48891 298,11 0,49662 297,96 0,49688 297,54 0,48983 296,55
-0,11775 0,48891 298,11 0,49662 297,96 0,49688 297,54 0,48983 296,55
-0,118 0,48891 298,11 0,49662 297,96 0,49688 297,54 0,48983 296,55
-0,11825 0,48891 298,11 0,49662 297,96 0,49688 297,54 0,48983 296,55
-0,1185 0,48891 298,11 0,49662 297,96 0,49688 297,54 0,48983 296,55
-0,11875 0,48891 298,11 0,49662 297,96 0,49688 297,54 0,48983 296,55
-0,119 0,48891 298,11 0,49662 297,96 0,49688 297,54 0,48983 296,55
-0,11925 0,48891 298,11 0,49662 297,96 0,49688 297,54 0,48983 296,55
-0,1195 0,48891 298,11 0,49662 297,96 0,49688 297,54 0,48983 296,55
-0,11975 0,48891 298,11 0,49662 297,96 0,49688 297,54 0,48983 296,55
-0,12 0,48891 298,11 0,49662 297,96 0,49688 297,54 0,48983 296,55
-0,12025 0,48891 298,11 0,49662 297,96 0,49688 297,54 0,48983 296,55
-0,1205 0,48891 298,11 0,49662 297,96 0,49688 297,54 0,48983 296,55
-0,12075 0,48891 298,11 0,49662 297,96 0,49688 297,54 0,48983 296,55
-0,121 0,48891 298,11 0,49662 297,96 0,49688 297,54 0,48983 296,55
-0,12125 0,48891 298,11 0,49662 297,96 0,49688 297,54 0,48983 296,55
-0,1215 0,48891 298,11 0,49662 297,96 0,49688 297,54 0,48983 296,55
-0,12175 0,48891 298,11 0,49662 297,96 0,49688 297,54 0,48983 296,55
-0,122 0,48891 298,11 0,49662 297,96 0,49688 297,54 0,48983 296,55
-0,12225 0,48891 298,11 0,49662 297,96 0,49688 297,54 0,48983 296,55
-0,1225 0,48891 298,11 0,49662 297,96 0,49688 297,54 0,48983 296,55
-0,12275 0,48891 298,11 0,49662 297,96 0,49688 297,54 0,48983 296,55
-0,123 0,48891 298,11 0,49662 297,96 0,49688 297,54 0,48983 296,55
-0,12325 0,48891 298,11 0,49662 297,96 0,49688 297,54 0,48983 296,55
-0,1235 0,48891 298,11 0,49662 297,96 0,49688 297,54 0,48983 296,55
-0,12375 0,48891 298,11 0,49662 297,96 0,49688 297,54 0,48983 296,55
-0,124 0,48891 298,11 0,49662 297,96 0,49688 297,54 0,48983 296,55
-0,12425 0,48891 298,11 0,49662 297,96 0,49688 297,54 0,48983 296,55
-0,1245 0,48891 298,11 0,49662 297,96 0,49688 297,54 0,48983 296,55
-0,12475 0,48891 298,11 0,49662 297,96 0,49688 297,54 0,48983 296,55
-0,125 0,48891 298,11 0,49662 297,96 0,49688 297,54 0,48983 296,55
-0,12525 0,48891 298,11 0,49662 297,96 0,49688 297,54 0,48983 296,55
-0,1255 0,48891 298,11 0,49662 297,96 0,49688 297,54 0,48983 296,55
-0,12575 0,48891 298,11 0,49662 297,96 0,49688 297,54 0,48983 296,55
-0,126 0,48891 298,11 0,49662 297,96 0,49688 297,54 0,48983 296,55
-0,12625 0,48891 298,11 0,49662 297,96 0,49688 297,54 0,48983 296,55
-0,1265 0,48891 298,11 0,49662 297,96 0,49688 297,54 0,48983 296,55
-0,12675 0,48891 298,11 0,49662 297,96 0,49688 297,54 0,48983 296,55
-0,127 0,48891 298,11 0,49662 297,96 0,49688 297,54 0,48983 296,55
-0,12725 0,48891 298,11 0,49662 297,96 0,49688 297,54 0,48983 296,55
-0,1275 0,48891 298,11 0,49662 297,96 0,49688 297,54 0,48983 296,55
-0,12775 0,48891 298,11 0,49662 297,96 0,49688 297,54 0,48983 296,55
-0,128 0,48891 298,11 0,49662 297,96 0,49688 297,54 0,48983 296,55
-0,12825 0,48891 298,11 0,49662 297,96 0,49688 297,54 0,48983 296,55
-0,1285 0,48891 298,11 0,49662 297,96 0,49688 297,54 0,48983 296,55
-0,12875 0,48891 298,11 0,49662 297,96 0,49688 297,54 0,48983 296,55
-0,129 0,48891 298,11 0,49662 297,96 0,49688 297,54 0,48983 296,55
-0,12925 0,48891 298,11 0,49662 297,96 0,49688 297,54 0,48983 296,55
-0,1295 0,48891 298,11 0,49662 297,96 0,49688 297,54 0,48983 296,55
-0,12975 0,48891 298,11 0,49662 297,96 0,49688 297,54 0,48983 296,55
-0,13 0,48891 298,11 0,49662 297,96 0,49688 297,54 0,48983 296,55
-0,13025 0,48891 298,11 0,49662 297,96 0,49688 297,54 0,48983 296,55
-0,1305 0,48891 298,11 0,49662 297,96 0,49688 297,54 0,48983 296,55
-0,13075 0,48891 298,11 0,49662 297,96 0,49688 297,54 0,48983 296,55
-0,131 0,48891 298,11 0,49662 297,96 0,49688 297,54 0,48983 296,55
-0,13125 0,48891 298,11 0,49662 297,96 0,49688 297,54 0,48983 296,55
-0,1315 0,48891 298,11 0,49662 297,96 0,49688 297,54 0,48983 296,55
-0,13175 0,48891 298,11 0,49662 297,96 0,49688 297,54 0,48983 296,55
-0,132 0,48891 298,11 0,49662 297,96 0,49688 297,54 0,48983 296,55
-0,13225 0,48891 298,11 0,49662 297,96 0,49688 297,54 0,48983 296,55
-0,1325 0,48891 298,11 0,49662 297,96 0,49688 297,54 0,48983 296,55
-0,13275 0,48891 298,11 0,49662 297,96 0,49688 297,54 0,48983 296,55
-0,133 0,48891 298,11 0,49662 297,96 0,49688 297,54 0,48983 296,55
-0,13325 0,48891 298,11 0,49662 297,96 0,49688 297,54 0,48983 296,55
-0,1335 0,48891 298,11 0,49662 297,96 0,49688 297,54 0,48983 296,55
-0,13375 0,48891 298,11 0,49662 297,96 0,49688 297,54 0,48983 296,55
-0,134 0,48891 298,11 0,49662 297,96 0,49688 297,54 0,48983 296,55
-0,13425 0,48891 298,11 0,49662 297,96 0,49688 297,54 0,48983 296,55
-0,1345 0,48891 298,11 0,49662 297,96 0,49688 297,54 0,48983 296,55
-0,13475 0,48891 298,11 0,49662 297,96 0,49688 297,54 0,48983 296,55
-0,135 0,48891 298,11 0,49662 297,96 0,49688 297,54 0,48983 296,55
-0,13525 0,48891 298,11 0,49662 297,96 0,49688 297,54 0,48983 296,55
-0,1355 0,48891 298,11 0,49662 297,96 0,49688 297,54 0,48983 296,55
-0,13575 0,48891 298,11 0,49662 297,96 0,49688 297,54 0,48983 296,55
-0,136 0,48891 298,11 0,49662 297,96 0,49688 297,54 0,48983 296,55
-0,13625 0,48891 298,11 0,49662 297,96 0,49688 297,54 0,48983 296,55
-0,1365 0,48891 298,11 0,49662 297,96 0,49688 297,54 0,48983 296,55
-0,13675 0,48891 298,11 0,49662 297,96 0,49688 297,54 0,48983 296,55
-0,137 0,48891 298,11 0,49662 297,96 0,49688 297,54 0,48983 296,55
-0,13725 0,48891 298,11 0,49662 297,96 0,49688 297,54 0,48983 296,55
-0,1375 0,48891 298,11 0,49662 297,96 0,49688 297,54 0,48983 296,55
-0,13775 0,48891 298,11 0,49662 297,96 0,49688 297,54 0,48983 296,55
-0,138 0,48891 298,11 0,49662 297,96 0,49688 297,54 0,48983 296,55
-0,13825 0,48891 298,11 0,49662 297,96 0,49688 297,54 0,48983 296,55
-0,1385 0,48891 298,11 0,49662 297,96 0,49688 297,54 0,48983 296,55
-0,13875 0,48891 298,11 0,49662 297,96 0,49688 297,54 0,48983 296,55
-0,139 0,48891 298,11 0,49662 297,96 0,49688 297,54 0,48983 296,55
-0,13925 0,48891 298,11 0,49662 297,96 0,49688 297,54 0,48983 296,55
-0,1395 0,48891 298,11 0,49662 297,96 0,49688 297,54 0,48983 296,55
-0,13975 0,48891 298,11 0,49662 297,96 0,49688 297,54 0,48983 296,55
-0,14 0,48891 298,11 0,49662 297,96 0,49688 297,54 0,48983 296,55
-0,14025 0,48891 298,11 0,49662 297,96 0,49688 297,54 0,48983 296,55
-0,1405 0,48891 298,11 0,49662 297,96 0,49688 297,54 0,48983 296,55
-0,14075 0,48891 298,11 0,49662 297,96 0,49688 297,54 0,48983 296,55
-0,141 0,48891 298,11 0,49662 297,96 0,49688 297,54 0,48983 296,55
-0,14125 0,48891 298,11 0,49662 297,96 0,49688 297,54 0,48983 296,55
-0,1415 0,48891 298,11 0,49662 297,96 0,49688 297,54 0,48983 296,55
-0,14175 0,48891 298,11 0,49662 297,96 0,49688 297,54 0,48983 296,55
-0,142 0,48891 298,11 0,49662 297,96 0,49688 297,54 0,48983 296,55
-0,14225 0,48891 298,11 0,49662 297,96 0,49688 297,54 0,48983 296,55
-0,1425 0,48891 298,11 0,49662 297,96 0,49688 297,54 0,48983 296,55
-0,14275 0,48891 298,11 0,49662 297,96 0,49688 297,54 0,48983 296,55
-0,143 0,48891 298,11 0,49662 297,96 0,49688 297,54 0,48983 296,55
-0,14325 0,48891 298,11 0,49662 297,96 0,49688 297,54 0,48983 296,55
-0,1435 0,48891 298,11 0,49662 297,96 0,49688 297,54 0,48983 296,55
-0,14375 0,48891 298,11 0,49662 297,96 0,49688 297,54 0,48983 296,55
-0,144 0,48891 298,11 0,49662 297,96 0,49688 297,54 0,48983 296,55
-0,14425 0,48891 298,11 0,49662 297,96 0,49688 297,54 0,48983 296,55
-0,1445 0,48891 298,11 0,49662 297,96 0,49688 297,54 0,48983 296,55
-0,14475 0,48891 298,11 0,49662 297,96 0,49688 297,54 0,48983 296,55
-0,145 0,48891 298,11 0,49662 297,96 0,49688 297,54 0,48983 296,55
-0,14525 0,48891 298,11 0,49662 297,96 0,49688 297,54 0,48983 296,55
-0,1455 0,48891 298,11 0,49662 297,96 0,49688 297,54 0,48983 296,55
-0,14575 0,48891 298,11 0,49662 297,96 0,49688 297,54 0,48983 296,55
-0,146 0,48891 298,11 0,49662 297,96 0,49688 297,54 0,48983 296,55
-0,14625 0,48891 298,11 0,49662 297,96 0,49688 297,54 0,48983 296,55
-0,1465 0,48891 298,11 0,49662 297,96 0,49688 297,54 0,48983 296,55
-0,14675 0,48891 298,11 0,49662 297,96 0,49688 297,54 0,48983 296,55
-0,147 0,48891 298,11 0,49662 297,96 0,49688 297,54 0,48983 296,55
-0,14725 0,48891 298,11 0,49662 297,96 0,49688 297,54 0,48983 296,55
-0,1475 0,88237 298,14 0,8865 298,09 0,88666 297,86 0,88306 296,97
-0,14775 0,88237 298,14 0,8865 298,09 0,88666 297,86 0,88306 296,97
-0,148 0,88237 298,14 0,8865 298,09 0,88666 297,86 0,88306 296,97
-0,14825 0,88237 298,14 0,8865 298,09 0,88666 297,86 0,88306 296,97
-0,1485 0,88237 298,14 0,8865 298,09 0,88666 297,86 0,88306 296,97
-0,14875 0,88237 298,14 0,8865 298,09 0,88666 297,86 0,88306 296,97
-0,149 0,88237 298,14 0,8865 298,09 0,88666 297,86 0,88306 296,97
-0,14925 0,88237 298,14 0,8865 298,09 0,88666 297,86 0,88306 296,97
-0,1495 0,88237 298,14 0,8865 298,09 0,88666 297,86 0,88306 296,97
-0,14975 0,88237 298,14 0,8865 298,09 0,88666 297,86 0,88306 296,97
-0,15 0,88237 298,14 0,8865 298,09 0,88666 297,86 0,88306 296,97
-0,15025 0,88237 298,14 0,8865 298,09 0,88666 297,86 0,88306 296,97
-0,1505 0,88237 298,14 0,8865 298,09 0,88666 297,86 0,88306 296,97
-0,15075 0,88237 298,14 0,8865 298,09 0,88666 297,86 0,88306 296,97
-0,151 0,88237 298,14 0,8865 298,09 0,88666 297,86 0,88306 296,97
-0,15125 0,88237 298,14 0,8865 298,09 0,88666 297,86 0,88306 296,97
-0,1515 0,88237 298,14 0,8865 298,09 0,88666 297,86 0,88306 296,97
-0,15175 0,88237 298,14 0,8865 298,09 0,88666 297,86 0,88306 296,97
-0,152 0,88237 298,14 0,8865 298,09 0,88666 297,86 0,88306 296,97
-0,15225 0,88237 298,14 0,8865 298,09 0,88666 297,86 0,88306 296,97
-0,1525 0,88237 298,14 0,8865 298,09 0,88666 297,86 0,88306 296,97
-0,15275 0,88237 298,14 0,8865 298,09 0,88666 297,86 0,88306 296,97
-0,153 0,88237 298,14 0,8865 298,09 0,88666 297,86 0,88306 296,97
-0,15325 0,88237 298,14 0,8865 298,09 0,88666 297,86 0,88306 296,97
-0,1535 0,88237 298,14 0,8865 298,09 0,88666 297,86 0,88306 296,97
-0,15375 0,88237 298,14 0,8865 298,09 0,88666 297,86 0,88306 296,97
-0,154 0,88237 298,14 0,8865 298,09 0,88666 297,86 0,88306 296,97
-0,15425 0,88237 298,14 0,8865 298,09 0,88666 297,86 0,88306 296,97
-0,1545 0,88237 298,14 0,8865 298,09 0,88666 297,86 0,88306 296,97
-0,15475 0,88237 298,14 0,8865 298,09 0,88666 297,86 0,88306 296,97
-0,155 0,88237 298,14 0,8865 298,09 0,88666 297,86 0,88306 296,97
-0,15525 0,88237 298,14 0,8865 298,09 0,88666 297,86 0,88306 296,97
-0,1555 0,88237 298,14 0,8865 298,09 0,88666 297,86 0,88306 296,97
-0,15575 0,88237 298,14 0,8865 298,09 0,88666 297,86 0,88306 296,97
-0,156 0,88237 298,14 0,8865 298,09 0,88666 297,86 0,88306 296,97
-0,15625 0,88237 298,14 0,8865 298,09 0,88666 297,86 0,88306 296,97
-0,1565 0,88237 298,14 0,8865 298,09 0,88666 297,86 0,88306 296,97
-0,15675 0,88237 298,14 0,8865 298,09 0,88666 297,86 0,88306 296,97
-0,157 0,88237 298,14 0,8865 298,09 0,88666 297,86 0,88306 296,97
-0,15725 0,88237 298,14 0,8865 298,09 0,88666 297,86 0,88306 296,97
-0,1575 0,88237 298,14 0,8865 298,09 0,88666 297,86 0,88306 296,97
-0,15775 0,88237 298,14 0,8865 298,09 0,88666 297,86 0,88306 296,97
-0,158 0,88237 298,14 0,8865 298,09 0,88666 297,86 0,88306 296,97
-0,15825 0,88237 298,14 0,8865 298,09 0,88666 297,86 0,88306 296,97
-0,1585 0,88237 298,14 0,8865 298,09 0,88666 297,86 0,88306 296,97
-0,15875 0,88237 298,14 0,8865 298,09 0,88666 297,86 0,88306 296,97
-0,159 0,88237 298,14 0,8865 298,09 0,88666 297,86 0,88306 296,97
-0,15925 0,88237 298,14 0,8865 298,09 0,88666 297,86 0,88306 296,97
-0,1595 0,88237 298,14 0,8865 298,09 0,88666 297,86 0,88306 296,97
-0,15975 0,88237 298,14 0,8865 298,09 0,88666 297,86 0,88306 296,97
-0,16 0,88237 298,14 0,8865 298,09 0,88666 297,86 0,88306 296,97
-0,16025 0,88237 298,14 0,8865 298,09 0,88666 297,86 0,88306 296,97
-0,1605 0,88237 298,14 0,8865 298,09 0,88666 297,86 0,88306 296,97
-0,16075 0,88237 298,14 0,8865 298,09 0,88666 297,86 0,88306 296,97
-0,161 0,88237 298,14 0,8865 298,09 0,88666 297,86 0,88306 296,97
-0,16125 0,88237 298,14 0,8865 298,09 0,88666 297,86 0,88306 296,97
-0,1615 0,88237 298,14 0,8865 298,09 0,88666 297,86 0,88306 296,97
-0,16175 0,88237 298,14 0,8865 298,09 0,88666 297,86 0,88306 296,97
-0,162 0,88237 298,14 0,8865 298,09 0,88666 297,86 0,88306 296,97
-0,16225 0,88237 298,14 0,8865 298,09 0,88666 297,86 0,88306 296,97
-0,1625 0,88237 298,14 0,8865 298,09 0,88666 297,86 0,88306 296,97
-0,16275 0,88237 298,14 0,8865 298,09 0,88666 297,86 0,88306 296,97
-0,163 0,88237 298,14 0,8865 298,09 0,88666 297,86 0,88306 296,97
-0,16325 0,88237 298,14 0,8865 298,09 0,88666 297,86 0,88306 296,97
-0,1635 0,88237 298,14 0,8865 298,09 0,88666 297,86 0,88306 296,97
-0,16375 0,88237 298,14 0,8865 298,09 0,88666 297,86 0,88306 296,97
-0,164 0,88237 298,14 0,8865 298,09 0,88666 297,86 0,88306 296,97
-0,16425 0,88237 298,14 0,8865 298,09 0,88666 297,86 0,88306 296,97
-0,1645 0,88237 298,14 0,8865 298,09 0,88666 297,86 0,88306 296,97
-0,16475 0,88237 298,14 0,8865 298,09 0,88666 297,86 0,88306 296,97
-0,165 0,88237 298,14 0,8865 298,09 0,88666 297,86 0,88306 296,97
-0,16525 0,88237 298,14 0,8865 298,09 0,88666 297,86 0,88306 296,97
-0,1655 0,88237 298,14 0,8865 298,09 0,88666 297,86 0,88306 296,97
-0,16575 0,88237 298,14 0,8865 298,09 0,88666 297,86 0,88306 296,97
-0,166 0,88237 298,14 0,8865 298,09 0,88666 297,86 0,88306 296,97
-0,16625 0,88237 298,14 0,8865 298,09 0,88666 297,86 0,88306 296,97
-0,1665 0,88237 298,14 0,8865 298,09 0,88666 297,86 0,88306 296,97
-0,16675 0,88237 298,14 0,8865 298,09 0,88666 297,86 0,88306 296,97
-0,167 0,88237 298,14 0,8865 298,09 0,88666 297,86 0,88306 296,97
-0,16725 0,88237 298,14 0,8865 298,09 0,88666 297,86 0,88306 296,97
-0,1675 0,88237 298,14 0,8865 298,09 0,88666 297,86 0,88306 296,97
-0,16775 0,88237 298,14 0,8865 298,09 0,88666 297,86 0,88306 296,97
-0,168 0,88237 298,14 0,8865 298,09 0,88666 297,86 0,88306 296,97
-0,16825 0,88237 298,14 0,8865 298,09 0,88666 297,86 0,88306 296,97
-0,1685 0,88237 298,14 0,8865 298,09 0,88666 297,86 0,88306 296,97
-0,16875 0,88237 298,14 0,8865 298,09 0,88666 297,86 0,88306 296,97
-0,169 0,88237 298,14 0,8865 298,09 0,88666 297,86 0,88306 296,97
-0,16925 0,88237 298,14 0,8865 298,09 0,88666 297,86 0,88306 296,97
-0,1695 0,88237 298,14 0,8865 298,09 0,88666 297,86 0,88306 296,97
-0,16975 0,88237 298,14 0,8865 298,09 0,88666 297,86 0,88306 296,97
-0,17 0,88237 298,14 0,8865 298,09 0,88666 297,86 0,88306 296,97
-0,17025 0,88237 298,14 0,8865 298,09 0,88666 297,86 0,88306 296,97
-0,1705 0,88237 298,14 0,8865 298,09 0,88666 297,86 0,88306 296,97
-0,17075 0,88237 298,14 0,8865 298,09 0,88666 297,86 0,88306 296,97
-0,171 0,88237 298,14 0,8865 298,09 0,88666 297,86 0,88306 296,97
-0,17125 0,88237 298,14 0,8865 298,09 0,88666 297,86 0,88306 296,97
-0,1715 0,88237 298,14 0,8865 298,09 0,88666 297,86 0,88306 296,97
-0,17175 0,88237 298,14 0,8865 298,09 0,88666 297,86 0,88306 296,97
-0,172 0,88237 298,14 0,8865 298,09 0,88666 297,86 0,88306 296,97
-0,17225 0,88237 298,14 0,8865 298,09 0,88666 297,86 0,88306 296,97
-0,1725 0,88237 298,14 0,8865 298,09 0,88666 297,86 0,88306 296,97
-0,17275 0,88237 298,14 0,8865 298,09 0,88666 297,86 0,88306 296,97
-0,173 0,88237 298,14 0,8865 298,09 0,88666 297,86 0,88306 296,97
-0,17325 0,88237 298,14 0,8865 298,09 0,88666 297,86 0,88306 296,97
-0,1735 0,88237 298,14 0,8865 298,09 0,88666 297,86 0,88306 296,97
-0,17375 0,88237 298,14 0,8865 298,09 0,88666 297,86 0,88306 296,97
-0,174 0,88237 298,14 0,8865 298,09 0,88666 297,86 0,88306 296,97
-0,17425 0,88237 298,14 0,8865 298,09 0,88666 297,86 0,88306 296,97
-0,1745 0,88237 298,14 0,8865 298,09 0,88666 297,86 0,88306 296,97
-0,17475 0,88237 298,14 0,8865 298,09 0,88666 297,86 0,88306 296,97
-0,175 0,88237 298,14 0,8865 298,09 0,88666 297,86 0,88306 296,97
-0,17525 0,88237 298,14 0,8865 298,09 0,88666 297,86 0,88306 296,97
-0,1755 0,88237 298,14 0,8865 298,09 0,88666 297,86 0,88306 296,97
-0,17575 0,88237 298,14 0,8865 298,09 0,88666 297,86 0,88306 296,97
-0,176 0,88237 298,14 0,8865 298,09 0,88666 297,86 0,88306 296,97
-0,17625 0,88237 298,14 0,8865 298,09 0,88666 297,86 0,88306 296,97
-0,1765 0,88237 298,14 0,8865 298,09 0,88666 297,86 0,88306 296,97
-0,17675 0,88237 298,14 0,8865 298,09 0,88666 297,86 0,88306 296,97
-0,177 0,88237 298,14 0,8865 298,09 0,88666 297,86 0,88306 296,97
-0,17725 0,88237 298,14 0,8865 298,09 0,88666 297,86 0,88306 296,97
-0,1775 0,88237 298,14 0,8865 298,09 0,88666 297,86 0,88306 296,97
-0,17775 0,88237 298,14 0,8865 298,09 0,88666 297,86 0,88306 296,97
-0,178 0,88237 298,14 0,8865 298,09 0,88666 297,86 0,88306 296,97
-0,17825 0,88237 298,14 0,8865 298,09 0,88666 297,86 0,88306 296,97
-0,1785 0,88237 298,14 0,8865 298,09 0,88666 297,86 0,88306 296,97
-0,17875 0,88237 298,14 0,8865 298,09 0,88666 297,86 0,88306 296,97
-0,179 0,88237 298,14 0,8865 298,09 0,88666 297,86 0,88306 296,97
-0,17925 0,88237 298,14 0,8865 298,09 0,88666 297,86 0,88306 296,97
-0,1795 0,88237 298,14 0,8865 298,09 0,88666 297,86 0,88306 296,97
-0,17975 0,88237 298,14 0,8865 298,09 0,88666 297,86 0,88306 296,97
-0,18 0,88237 298,14 0,8865 298,09 0,88666 297,86 0,88306 296,97
-0,18025 0,88237 298,14 0,8865 298,09 0,88666 297,86 0,88306 296,97
-0,1805 0,88237 298,14 0,8865 298,09 0,88666 297,86 0,88306 296,97
-0,18075 0,88237 298,14 0,8865 298,09 0,88666 297,86 0,88306 296,97
-0,181 0,88237 298,14 0,8865 298,09 0,88666 297,86 0,88306 296,97
-0,18125 0,88237 298,14 0,8865 298,09 0,88666 297,86 0,88306 296,97
-0,1815 0,88237 298,14 0,8865 298,09 0,88666 297,86 0,88306 296,97
-0,18175 0,88237 298,14 0,8865 298,09 0,88666 297,86 0,88306 296,97
-0,182 0,88237 298,14 0,8865 298,09 0,88666 297,86 0,88306 296,97
-0,18225 0,88237 298,14 0,8865 298,09 0,88666 297,86 0,88306 296,97
-0,1825 0,88237 298,14 0,8865 298,09 0,88666 297,86 0,88306 296,97
-0,18275 0,88237 298,14 0,8865 298,09 0,88666 297,86 0,88306 296,97
-0,183 0,88237 298,14 0,8865 298,09 0,88666 297,86 0,88306 296,97
-0,18325 0,88237 298,14 0,8865 298,09 0,88666 297,86 0,88306 296,97
-0,1835 0,88237 298,14 0,8865 298,09 0,88666 297,86 0,88306 296,97
-0,18375 0,88237 298,14 0,8865 298,09 0,88666 297,86 0,88306 296,97
-0,184 0,88237 298,14 0,8865 298,09 0,88666 297,86 0,88306 296,97
-0,18425 0,88237 298,14 0,8865 298,09 0,88666 297,86 0,88306 296,97
-0,1845 0,88237 298,14 0,8865 298,09 0,88666 297,86 0,88306 296,97
-0,18475 0,88237 298,14 0,8865 298,09 0,88666 297,86 0,88306 296,97
-0,185 0,88237 298,14 0,8865 298,09 0,88666 297,86 0,88306 296,97
-0,18525 0,88237 298,14 0,8865 298,09 0,88666 297,86 0,88306 296,97
-0,1855 0,88237 298,14 0,8865 298,09 0,88666 297,86 0,88306 296,97
-0,18575 0,88237 298,14 0,8865 298,09 0,88666 297,86 0,88306 296,97
-0,186 0,88237 298,14 0,8865 298,09 0,88666 297,86 0,88306 296,97
-0,18625 0,88237 298,14 0,8865 298,09 0,88666 297,86 0,88306 296,97
-0,1865 0,88237 298,14 0,8865 298,09 0,88666 297,86 0,88306 296,97
-0,18675 0,88237 298,14 0,8865 298,09 0,88666 297,86 0,88306 296,97
-0,187 0,88237 298,14 0,8865 298,09 0,88666 297,86 0,88306 296,97
-0,18725 0,88237 298,14 0,8865 298,09 0,88666 297,86 0,88306 296,97
-0,1875 0,88237 298,14 0,8865 298,09 0,88666 297,86 0,88306 296,97
-0,18775 0,88237 298,14 0,8865 298,09 0,88666 297,86 0,88306 296,97
-0,188 0,88237 298,14 0,8865 298,09 0,88666 297,86 0,88306 296,97
-0,18825 0,88237 298,14 0,8865 298,09 0,88666 297,86 0,88306 296,97
-0,1885 0,88237 298,14 0,8865 298,09 0,88666 297,86 0,88306 296,97
-0,18875 0,88237 298,14 0,8865 298,09 0,88666 297,86 0,88306 296,97
-0,189 0,88237 298,14 0,8865 298,09 0,88666 297,86 0,88306 296,97
-0,18925 0,88237 298,14 0,8865 298,09 0,88666 297,86 0,88306 296,97
-0,1895 0,88237 298,14 0,8865 298,09 0,88666 297,86 0,88306 296,97
-0,18975 0,88237 298,14 0,8865 298,09 0,88666 297,86 0,88306 296,97
-0,19 0,88237 298,14 0,8865 298,09 0,88666 297,86 0,88306 296,97
-0,19025 0,88237 298,14 0,8865 298,09 0,88666 297,86 0,88306 296,97
-0,1905 0,88237 298,14 0,8865 298,09 0,88666 297,86 0,88306 296,97
-0,19075 0,88237 298,14 0,8865 298,09 0,88666 297,86 0,88306 296,97
-0,191 0,88237 298,14 0,8865 298,09 0,88666 297,86 0,88306 296,97
-0,19125 0,88237 298,14 0,8865 298,09 0,88666 297,86 0,88306 296,97
-0,1915 0,88237 298,14 0,8865 298,09 0,88666 297,86 0,88306 296,97
-0,19175 0,88237 298,14 0,8865 298,09 0,88666 297,86 0,88306 296,97
-0,192 0,98423 298,15 0,98433 298,14 0,98433 298,03 0,98425 297,27
-0,19225 0,98423 298,15 0,98433 298,14 0,98433 298,03 0,98425 297,27
-0,1925 0,98423 298,15 0,98433 298,14 0,98433 298,03 0,98425 297,27
-0,19275 0,98423 298,15 0,98433 298,14 0,98433 298,03 0,98425 297,27
-0,193 0,98423 298,15 0,98433 298,14 0,98433 298,03 0,98425 297,27
-0,19325 0,98423 298,15 0,98433 298,14 0,98433 298,03 0,98425 297,27
-0,1935 0,98423 298,15 0,98433 298,14 0,98433 298,03 0,98425 297,27
-0,19375 0,98423 298,15 0,98433 298,14 0,98433 298,03 0,98425 297,27
-0,194 0,98423 298,15 0,98433 298,14 0,98433 298,03 0,98425 297,27
-0,19425 0,98423 298,15 0,98433 298,14 0,98433 298,03 0,98425 297,27
-0,1945 0,98423 298,15 0,98433 298,14 0,98433 298,03 0,98425 297,27
-0,19475 0,98423 298,15 0,98433 298,14 0,98433 298,03 0,98425 297,27
-0,195 0,98423 298,15 0,98433 298,14 0,98433 298,03 0,98425 297,27
-0,19525 0,98423 298,15 0,98433 298,14 0,98433 298,03 0,98425 297,27
-0,1955 0,98423 298,15 0,98433 298,14 0,98433 298,03 0,98425 297,27
-0,19575 0,98423 298,15 0,98433 298,14 0,98433 298,03 0,98425 297,27
-0,196 0,98423 298,15 0,98433 298,14 0,98433 298,03 0,98425 297,27
-0,19625 0,98423 298,15 0,98433 298,14 0,98433 298,03 0,98425 297,27
-0,1965 0,98423 298,15 0,98433 298,14 0,98433 298,03 0,98425 297,27
-0,19675 0,98423 298,15 0,98433 298,14 0,98433 298,03 0,98425 297,27
-0,197 0,98423 298,15 0,98433 298,14 0,98433 298,03 0,98425 297,27
-0,19725 0,98423 298,15 0,98433 298,14 0,98433 298,03 0,98425 297,27
-0,1975 0,98423 298,15 0,98433 298,14 0,98433 298,03 0,98425 297,27
-0,19775 0,98423 298,15 0,98433 298,14 0,98433 298,03 0,98425 297,27
-0,198 0,98423 298,15 0,98433 298,14 0,98433 298,03 0,98425 297,27
-0,19825 0,98423 298,15 0,98433 298,14 0,98433 298,03 0,98425 297,27
-0,1985 0,98423 298,15 0,98433 298,14 0,98433 298,03 0,98425 297,27
-0,19875 0,98423 298,15 0,98433 298,14 0,98433 298,03 0,98425 297,27
-0,199 0,98423 298,15 0,98433 298,14 0,98433 298,03 0,98425 297,27
-0,19925 0,98423 298,15 0,98433 298,14 0,98433 298,03 0,98425 297,27
-0,1995 0,98423 298,15 0,98433 298,14 0,98433 298,03 0,98425 297,27
-0,19975 0,98423 298,15 0,98433 298,14 0,98433 298,03 0,98425 297,27
-0,2 0,98423 298,15 0,98433 298,14 0,98433 298,03 0,98425 297,27
-0,20025 0,98423 298,15 0,98433 298,14 0,98433 298,03 0,98425 297,27
-0,2005 0,98423 298,15 0,98433 298,14 0,98433 298,03 0,98425 297,27
-0,20075 0,98423 298,15 0,98433 298,14 0,98433 298,03 0,98425 297,27
-0,201 0,98423 298,15 0,98433 298,14 0,98433 298,03 0,98425 297,27
-0,20125 0,98423 298,15 0,98433 298,14 0,98433 298,03 0,98425 297,27
-0,2015 0,98423 298,15 0,98433 298,14 0,98433 298,03 0,98425 297,27
-0,20175 0,98423 298,15 0,98433 298,14 0,98433 298,03 0,98425 297,27
-0,202 0,98423 298,15 0,98433 298,14 0,98433 298,03 0,98425 297,27
-0,20225 0,98423 298,15 0,98433 298,14 0,98433 298,03 0,98425 297,27
-0,2025 0,98423 298,15 0,98433 298,14 0,98433 298,03 0,98425 297,27
-0,20275 0,98423 298,15 0,98433 298,14 0,98433 298,03 0,98425 297,27
-0,203 0,98423 298,15 0,98433 298,14 0,98433 298,03 0,98425 297,27
-0,20325 0,98423 298,15 0,98433 298,14 0,98433 298,03 0,98425 297,27
-0,2035 0,98423 298,15 0,98433 298,14 0,98433 298,03 0,98425 297,27
-0,20375 0,98423 298,15 0,98433 298,14 0,98433 298,03 0,98425 297,27
-0,204 0,98423 298,15 0,98433 298,14 0,98433 298,03 0,98425 297,27
-0,20425 0,98423 298,15 0,98433 298,14 0,98433 298,03 0,98425 297,27
-0,2045 0,98423 298,15 0,98433 298,14 0,98433 298,03 0,98425 297,27
-0,20475 0,98423 298,15 0,98433 298,14 0,98433 298,03 0,98425 297,27
-0,205 0,98423 298,15 0,98433 298,14 0,98433 298,03 0,98425 297,27
-0,20525 0,98423 298,15 0,98433 298,14 0,98433 298,03 0,98425 297,27
-0,2055 0,98423 298,15 0,98433 298,14 0,98433 298,03 0,98425 297,27
-0,20575 0,98423 298,15 0,98433 298,14 0,98433 298,03 0,98425 297,27
-0,206 0,98423 298,15 0,98433 298,14 0,98433 298,03 0,98425 297,27
-0,20625 0,98423 298,15 0,98433 298,14 0,98433 298,03 0,98425 297,27
-0,2065 0,98423 298,15 0,98433 298,14 0,98433 298,03 0,98425 297,27
-0,20675 0,98423 298,15 0,98433 298,14 0,98433 298,03 0,98425 297,27
-0,207 0,98423 298,15 0,98433 298,14 0,98433 298,03 0,98425 297,27
-0,20725 0,98423 298,15 0,98433 298,14 0,98433 298,03 0,98425 297,27
-0,2075 0,98423 298,15 0,98433 298,14 0,98433 298,03 0,98425 297,27
-0,20775 0,98423 298,15 0,98433 298,14 0,98433 298,03 0,98425 297,27
-0,208 0,98423 298,15 0,98433 298,14 0,98433 298,03 0,98425 297,27
-0,20825 0,98423 298,15 0,98433 298,14 0,98433 298,03 0,98425 297,27
-0,2085 0,98423 298,15 0,98433 298,14 0,98433 298,03 0,98425 297,27
-0,20875 0,98423 298,15 0,98433 298,14 0,98433 298,03 0,98425 297,27
-0,209 0,98423 298,15 0,98433 298,14 0,98433 298,03 0,98425 297,27
-0,20925 0,98423 298,15 0,98433 298,14 0,98433 298,03 0,98425 297,27
-0,2095 0,98423 298,15 0,98433 298,14 0,98433 298,03 0,98425 297,27
-0,20975 0,98423 298,15 0,98433 298,14 0,98433 298,03 0,98425 297,27
-0,21 0,98423 298,15 0,98433 298,14 0,98433 298,03 0,98425 297,27
-0,21025 0,98423 298,15 0,98433 298,14 0,98433 298,03 0,98425 297,27
-0,2105 0,98423 298,15 0,98433 298,14 0,98433 298,03 0,98425 297,27
-0,21075 0,98423 298,15 0,98433 298,14 0,98433 298,03 0,98425 297,27
-0,211 0,98423 298,15 0,98433 298,14 0,98433 298,03 0,98425 297,27
-0,21125 0,98423 298,15 0,98433 298,14 0,98433 298,03 0,98425 297,27
-0,2115 0,98423 298,15 0,98433 298,14 0,98433 298,03 0,98425 297,27
-0,21175 0,98423 298,15 0,98433 298,14 0,98433 298,03 0,98425 297,27
-0,212 0,98423 298,15 0,98433 298,14 0,98433 298,03 0,98425 297,27
-0,21225 0,98423 298,15 0,98433 298,14 0,98433 298,03 0,98425 297,27
-0,2125 0,98423 298,15 0,98433 298,14 0,98433 298,03 0,98425 297,27
-0,21275 0,98423 298,15 0,98433 298,14 0,98433 298,03 0,98425 297,27
-0,213 0,98423 298,15 0,98433 298,14 0,98433 298,03 0,98425 297,27
-0,21325 0,98423 298,15 0,98433 298,14 0,98433 298,03 0,98425 297,27
-0,2135 0,98423 298,15 0,98433 298,14 0,98433 298,03 0,98425 297,27
-0,21375 0,98423 298,15 0,98433 298,14 0,98433 298,03 0,98425 297,27
-0,214 0,98423 298,15 0,98433 298,14 0,98433 298,03 0,98425 297,27
-0,21425 0,98423 298,15 0,98433 298,14 0,98433 298,03 0,98425 297,27
-0,2145 0,98423 298,15 0,98433 298,14 0,98433 298,03 0,98425 297,27
-0,21475 0,98423 298,15 0,98433 298,14 0,98433 298,03 0,98425 297,27
-0,215 0,98423 298,15 0,98433 298,14 0,98433 298,03 0,98425 297,27
-0,21525 0,98423 298,15 0,98433 298,14 0,98433 298,03 0,98425 297,27
-0,2155 0,98423 298,15 0,98433 298,14 0,98433 298,03 0,98425 297,27
-0,21575 0,98423 298,15 0,98433 298,14 0,98433 298,03 0,98425 297,27
-0,216 0,98423 298,15 0,98433 298,14 0,98433 298,03 0,98425 297,27
-0,21625 0,98423 298,15 0,98433 298,14 0,98433 298,03 0,98425 297,27
-0,2165 0,98423 298,15 0,98433 298,14 0,98433 298,03 0,98425 297,27
-0,21675 0,98423 298,15 0,98433 298,14 0,98433 298,03 0,98425 297,27
-0,217 0,98423 298,15 0,98433 298,14 0,98433 298,03 0,98425 297,27
-0,21725 0,98423 298,15 0,98433 298,14 0,98433 298,03 0,98425 297,27
-0,2175 0,98423 298,15 0,98433 298,14 0,98433 298,03 0,98425 297,27
-0,21775 0,98423 298,15 0,98433 298,14 0,98433 298,03 0,98425 297,27
-0,218 0,98423 298,15 0,98433 298,14 0,98433 298,03 0,98425 297,27
-0,21825 0,98423 298,15 0,98433 298,14 0,98433 298,03 0,98425 297,27
-0,2185 0,98423 298,15 0,98433 298,14 0,98433 298,03 0,98425 297,27
-0,21875 0,98423 298,15 0,98433 298,14 0,98433 298,03 0,98425 297,27
-0,219 0,98423 298,15 0,98433 298,14 0,98433 298,03 0,98425 297,27
-0,21925 0,98423 298,15 0,98433 298,14 0,98433 298,03 0,98425 297,27
-0,2195 0,98423 298,15 0,98433 298,14 0,98433 298,03 0,98425 297,27
-0,21975 0,98423 298,15 0,98433 298,14 0,98433 298,03 0,98425 297,27
-0,22 0,98423 298,15 0,98433 298,14 0,98433 298,03 0,98425 297,27
-0,22025 0,98423 298,15 0,98433 298,14 0,98433 298,03 0,98425 297,27
-0,2205 0,98423 298,15 0,98433 298,14 0,98433 298,03 0,98425 297,27
-0,22075 0,98423 298,15 0,98433 298,14 0,98433 298,03 0,98425 297,27
-0,221 0,98423 298,15 0,98433 298,14 0,98433 298,03 0,98425 297,27
-0,22125 0,98423 298,15 0,98433 298,14 0,98433 298,03 0,98425 297,27
-0,2215 0,98423 298,15 0,98433 298,14 0,98433 298,03 0,98425 297,27
-0,22175 0,98423 298,15 0,98433 298,14 0,98433 298,03 0,98425 297,27
-0,222 0,98423 298,15 0,98433 298,14 0,98433 298,03 0,98425 297,27
-0,22225 0,98423 298,15 0,98433 298,14 0,98433 298,03 0,98425 297,27
-0,2225 0,98423 298,15 0,98433 298,14 0,98433 298,03 0,98425 297,27
-0,22275 0,98423 298,15 0,98433 298,14 0,98433 298,03 0,98425 297,27
-0,223 0,98423 298,15 0,98433 298,14 0,98433 298,03 0,98425 297,27
-0,22325 0,98423 298,15 0,98433 298,14 0,98433 298,03 0,98425 297,27
-0,2235 0,98423 298,15 0,98433 298,14 0,98433 298,03 0,98425 297,27
-0,22375 0,98423 298,15 0,98433 298,14 0,98433 298,03 0,98425 297,27
-0,224 0,98423 298,15 0,98433 298,14 0,98433 298,03 0,98425 297,27
-0,22425 0,98423 298,15 0,98433 298,14 0,98433 298,03 0,98425 297,27
-0,2245 0,98423 298,15 0,98433 298,14 0,98433 298,03 0,98425 297,27
-0,22475 0,98423 298,15 0,98433 298,14 0,98433 298,03 0,98425 297,27
-0,225 0,98423 298,15 0,98433 298,14 0,98433 298,03 0,98425 297,27
-0,22525 0,98423 298,15 0,98433 298,14 0,98433 298,03 0,98425 297,27
-0,2255 0,98423 298,15 0,98433 298,14 0,98433 298,03 0,98425 297,27
-0,22575 0,98423 298,15 0,98433 298,14 0,98433 298,03 0,98425 297,27
-0,226 0,98423 298,15 0,98433 298,14 0,98433 298,03 0,98425 297,27
-0,22625 0,98423 298,15 0,98433 298,14 0,98433 298,03 0,98425 297,27
-0,2265 0,98423 298,15 0,98433 298,14 0,98433 298,03 0,98425 297,27
-0,22675 0,98423 298,15 0,98433 298,14 0,98433 298,03 0,98425 297,27
-0,227 0,98423 298,15 0,98433 298,14 0,98433 298,03 0,98425 297,27
-0,22725 0,98423 298,15 0,98433 298,14 0,98433 298,03 0,98425 297,27
-0,2275 0,98423 298,15 0,98433 298,14 0,98433 298,03 0,98425 297,27
-0,22775 0,98423 298,15 0,98433 298,14 0,98433 298,03 0,98425 297,27
-0,228 0,98423 298,15 0,98433 298,14 0,98433 298,03 0,98425 297,27
-0,22825 0,98423 298,15 0,98433 298,14 0,98433 298,03 0,98425 297,27
-0,2285 0,98423 298,15 0,98433 298,14 0,98433 298,03 0,98425 297,27
-0,22875 0,98423 298,15 0,98433 298,14 0,98433 298,03 0,98425 297,27
-0,229 0,98423 298,15 0,98433 298,14 0,98433 298,03 0,98425 297,27
-0,22925 0,98423 298,15 0,98433 298,14 0,98433 298,03 0,98425 297,27
-0,2295 0,98423 298,15 0,98433 298,14 0,98433 298,03 0,98425 297,27
-0,22975 0,98423 298,15 0,98433 298,14 0,98433 298,03 0,98425 297,27
-0,23 0,98423 298,15 0,98433 298,14 0,98433 298,03 0,98425 297,27
-0,23025 0,98423 298,15 0,98433 298,14 0,98433 298,03 0,98425 297,27
-0,2305 0,98423 298,15 0,98433 298,14 0,98433 298,03 0,98425 297,27
-0,23075 0,98423 298,15 0,98433 298,14 0,98433 298,03 0,98425 297,27
-0,231 0,98423 298,15 0,98433 298,14 0,98433 298,03 0,98425 297,27
-0,23125 0,98423 298,15 0,98433 298,14 0,98433 298,03 0,98425 297,27
-0,2315 0,98423 298,15 0,98433 298,14 0,98433 298,03 0,98425 297,27
-0,23175 0,98423 298,15 0,98433 298,14 0,98433 298,03 0,98425 297,27
-0,232 0,98423 298,15 0,98433 298,14 0,98433 298,03 0,98425 297,27
-0,23225 0,98423 298,15 0,98433 298,14 0,98433 298,03 0,98425 297,27
-0,2325 0,98423 298,15 0,98433 298,14 0,98433 298,03 0,98425 297,27
-0,23275 0,98423 298,15 0,98433 298,14 0,98433 298,03 0,98425 297,27
-0,233 0,98423 298,15 0,98433 298,14 0,98433 298,03 0,98425 297,27
-0,23325 0,98423 298,15 0,98433 298,14 0,98433 298,03 0,98425 297,27
-0,2335 0,98423 298,15 0,98433 298,14 0,98433 298,03 0,98425 297,27
-0,23375 0,98423 298,15 0,98433 298,14 0,98433 298,03 0,98425 297,27
-0,234 0,98423 298,15 0,98433 298,14 0,98433 298,03 0,98425 297,27
-0,23425 0,98423 298,15 0,98433 298,14 0,98433 298,03 0,98425 297,27
-0,2345 0,98423 298,15 0,98433 298,14 0,98433 298,03 0,98425 297,27
-0,23475 0,98423 298,15 0,98433 298,14 0,98433 298,03 0,98425 297,27
-0,235 0,98423 298,15 0,98433 298,14 0,98433 298,03 0,98425 297,27
-0,23525 0,98423 298,15 0,98433 298,14 0,98433 298,03 0,98425 297,27
-0,2355 0,98423 298,15 0,98433 298,14 0,98433 298,03 0,98425 297,27
-0,23575 0,98423 298,15 0,98433 298,14 0,98433 298,03 0,98425 297,27
-0,236 0,98423 298,15 0,98433 298,14 0,98433 298,03 0,98425 297,27
-0,23625 0,98423 298,15 0,98433 298,14 0,98433 298,03 0,98425 297,27
-0,2365 0,98423 298,15 0,98433 298,14 0,98433 298,03 0,98425 297,27
-0,23675 0,98423 298,15 0,98433 298,14 0,98433 298,03 0,98425 297,27
-0,237 0,98423 298,15 0,98433 298,14 0,98433 298,03 0,98425 297,27
-0,23725 0,98423 298,15 0,98433 298,14 0,98433 298,03 0,98425 297,27
-0,2375 0,98423 298,15 0,98433 298,14 0,98433 298,03 0,98425 297,27
-0,23775 0,98423 298,15 0,98433 298,14 0,98433 298,03 0,98425 297,27
-0,238 0,98423 298,15 0,98433 298,14 0,98433 298,03 0,98425 297,27
-0,23825 0,98423 298,15 0,98433 298,14 0,98433 298,03 0,98425 297,27
-0,2385 0,98423 298,15 0,98433 298,14 0,98433 298,03 0,98425 297,27
-0,23875 0,98423 298,15 0,98433 298,14 0,98433 298,03 0,98425 297,27
-0,239 0,98423 298,15 0,98433 298,14 0,98433 298,03 0,98425 297,27
-0,23925 0,98423 298,15 0,98433 298,14 0,98433 298,03 0,98425 297,27
-0,2395 0,98423 298,15 0,98433 298,14 0,98433 298,03 0,98425 297,27
-0,23975 0,98423 298,15 0,98433 298,14 0,98433 298,03 0,98425 297,27
-0,24 0,98423 298,15 0,98433 298,14 0,98433 298,03 0,98425 297,27
-0,24025 0,98423 298,15 0,98433 298,14 0,98433 298,03 0,98425 297,27
-0,2405 0,98423 298,15 0,98433 298,14 0,98433 298,03 0,98425 297,27
-0,24075 0,98423 298,15 0,98433 298,14 0,98433 298,03 0,98425 297,27
-0,241 0,98423 298,15 0,98433 298,14 0,98433 298,03 0,98425 297,27
-0,24125 0,98423 298,15 0,98433 298,14 0,98433 298,03 0,98425 297,27
-0,2415 0,98423 298,15 0,98433 298,14 0,98433 298,03 0,98425 297,27
-0,24175 0,98423 298,15 0,98433 298,14 0,98433 298,03 0,98425 297,27
-0,242 0,98423 298,15 0,98433 298,14 0,98433 298,03 0,98425 297,27
-0,24225 0,98423 298,15 0,98433 298,14 0,98433 298,03 0,98425 297,27
-0,2425 0,98423 298,15 0,98433 298,14 0,98433 298,03 0,98425 297,27
-0,24275 0,98423 298,15 0,98433 298,14 0,98433 298,03 0,98425 297,27
-0,243 0,98423 298,15 0,98433 298,14 0,98433 298,03 0,98425 297,27
-0,24325 0,98423 298,15 0,98433 298,14 0,98433 298,03 0,98425 297,27
-0,2435 0,98423 298,15 0,98433 298,14 0,98433 298,03 0,98425 297,27
-0,24375 0,98423 298,15 0,98433 298,14 0,98433 298,03 0,98425 297,27
-0,244 0,98423 298,15 0,98433 298,14 0,98433 298,03 0,98425 297,27
-0,24425 0,98423 298,15 0,98433 298,14 0,98433 298,03 0,98425 297,27
-0,2445 0,98423 298,15 0,98433 298,14 0,98433 298,03 0,98425 297,27
-0,24475 0,98423 298,15 0,98433 298,14 0,98433 298,03 0,98425 297,27
-0,245 0,98423 298,15 0,98433 298,14 0,98433 298,03 0,98425 297,27
-0,24525 0,98423 298,15 0,98433 298,14 0,98433 298,03 0,98425 297,27
-0,2455 0,98423 298,15 0,98433 298,14 0,98433 298,03 0,98425 297,27
-0,24575 0,98423 298,15 0,98433 298,14 0,98433 298,03 0,98425 297,27
-0,246 0,98423 298,15 0,98433 298,14 0,98433 298,03 0,98425 297,27
-0,24625 0,98423 298,15 0,98433 298,14 0,98433 298,03 0,98425 297,27
-0,2465 0,98423 298,15 0,98433 298,14 0,98433 298,03 0,98425 297,27
-0,24675 0,98423 298,15 0,98433 298,14 0,98433 298,03 0,98425 297,27
-0,247 0,98423 298,15 0,98433 298,14 0,98433 298,03 0,98425 297,27
-0,24725 0,98423 298,15 0,98433 298,14 0,98433 298,03 0,98425 297,27
-0,2475 0,98423 298,15 0,98433 298,14 0,98433 298,03 0,98425 297,27
-0,24775 0,98423 298,15 0,98433 298,14 0,98433 298,03 0,98425 297,27
-0,248 0,98423 298,15 0,98433 298,14 0,98433 298,03 0,98425 297,27
-0,24825 0,98423 298,15 0,98433 298,14 0,98433 298,03 0,98425 297,27
-0,2485 0,98423 298,15 0,98433 298,14 0,98433 298,03 0,98425 297,27
-0,24875 0,98423 298,15 0,98433 298,14 0,98433 298,03 0,98425 297,27
-0,249 0,98423 298,15 0,98433 298,14 0,98433 298,03 0,98425 297,27
-0,24925 0,98423 298,15 0,98433 298,14 0,98433 298,03 0,98425 297,27
-0,2495 0,98423 298,15 0,98433 298,14 0,98433 298,03 0,98425 297,27
-0,24975 0,98423 298,15 0,98433 298,14 0,98433 298,03 0,98425 297,27
-0,25 0,98423 298,15 0,98433 298,14 0,98433 298,03 0,98425 297,27
