   3.2150205761316875E-008   2.4627828483048173     
   7.0730454207938401E-008   2.4626272226889689     
   1.1702675418353383E-007   2.4624891724986750     
   1.7258231636182798E-007   2.4623577493348119     
   2.3924899362487656E-007   2.4622284529974063     
   3.1924900951944979E-007   2.4620988278259581     
   4.1524903240763566E-007   2.4619672757943212     
   5.3044906445109654E-007   2.4618325890835320     
   6.6868910839641516E-007   2.4616937073369409     
   8.3457716772259649E-007   2.4615495519106410     
   1.0336428468241732E-006   2.4613988796386121     
   1.2725216712382562E-006   2.4612401287401733     
   1.5591762719257859E-006   2.4610712428116179     
   1.9031618064195784E-006   2.4608894684196359     
   2.3159444642146374E-006   2.4606911332728933     
   2.8112836732517196E-006   2.4604714284573794     
   3.4056907477158325E-006   2.4602242387676978     
   4.1189792654163052E-006   2.4599421716492085     
   4.9749255206691203E-006   2.4596194061499439     
   6.0020610677871952E-006   2.4592463304124670     
   7.2346237733065259E-006   2.4588170783106014     
   8.7136990787028929E-006   2.4583276663890010     
   1.0488589515706338E-005   2.4577793127468341     
   1.2618458124743845E-005   2.4571876039435838     
   1.5174300557148902E-005   2.4565599750595135     
   1.8241311597907033E-005   2.4558454807534487     
   2.1921724993063277E-005   2.4550286418977803     
   2.6338221242746553E-005   2.4541145831905187     
   3.1638016952961439E-005   2.4531291515120088     
   3.7997772057933253E-005   2.4520242767814127     
   4.5629478487156187E-005   2.4507804050504309     
   5.4787526566131826E-005   2.4494000390619157     
   6.5777184697592362E-005   2.4478415923343815     
   7.8964774979372733E-005   2.4460855282684135     
   9.4789883946342477E-005   2.4440893758197668     
   1.1378001546130618E-004   2.4418100556901048     
   1.3656817418478267E-004   2.4391826604568227     
   1.6391396573957852E-004   2.4361278066986336     
   1.9672891690928251E-004   2.4325298967163689     
   2.3610685987766609E-004   2.4282236963572390     
   2.8336039331741301E-004   2.4229601211949814     
   3.4006463569833339E-004   2.4163398790162551     
   4.0810972925930678E-004   2.4077055572870711     
   4.8976384477711777E-004   2.3960105574172146     
   5.8774878729206273E-004   2.3797046291244035     
   7.0533072298228265E-004   2.3563739496576086     
   8.4642905141729024E-004   2.3218595813314793     
   1.0157470522673920E-003   2.2690436528740374     
   1.2189286613612253E-003   2.1862808916428977     
   1.4627466019622795E-003   2.0566402563119537     
   1.7553281423096901E-003   1.8638196045550428     
   2.1064260046779579E-003   1.6161600794617232     
   2.5277434562615297E-003   1.3650039271885182     
   3.0333244182517978E-003   1.1563527372358291     
   3.6400215967480978E-003  0.99517511318982932     
   4.3680582398732343E-003  0.86931639742771605     
   5.2417022463388894E-003  0.76773416739890354     
   6.2900750957562701E-003  0.68324186204179171     
   7.5481225650474385E-003  0.61136025203147126     
   9.0577795881852195E-003  0.54920657597924527     
   1.0869368087936612E-002  0.49483143993025402     
   1.3043274374021556E-002  0.44685227144741407     
   1.5651962020983415E-002  0.40424160381576280     
   1.8782387321729571E-002  0.36621042111906105     
   2.2538897831895263E-002  0.33213543905647869     
   2.7046710623218475E-002  0.30151230794196748     
   3.2456086187755598E-002  0.27392388785345101     
   3.8947337123139268E-002  0.24901907166861190     
   4.6736838555126642E-002  0.22649926752584240     
   5.6084240644943856E-002  0.20610784879521118     
   6.7301123598443383E-002  0.18762140690841836     
   8.0761383677505474E-002  0.17084334621147493     
   9.6913696414215197E-002  0.15559955485172927     
  0.11629647246846916       0.14173540260022421     
  0.13955580465781670       0.12911325845448174     
  0.16746700439412512       0.11761027767182920     
  0.20096044540860497       0.10711675267209747     
  0.24115257622307248        9.7534936235187122E-002
  0.28938313511694369        8.8777982635953004E-002
  0.34725980808940132        8.0768592484603191E-002
  0.41671181841612537        7.3437379976792477E-002
  0.50005423411992411        6.6721509446825311E-002
  0.60006513693855879        6.0564045980087987E-002
  0.72007822508981179        5.4913852481059414E-002
  0.86409393659398526        4.9725253683100254E-002
   1.0369127972661978        4.4956859550786495E-002
   1.2442954383134981        4.0570105760685447E-002
   1.4931546174590336        3.6528875197588802E-002
   1.7917856443002063        3.2801062076524619E-002
   2.1501428907494509        2.9361083848000770E-002
   2.5801716035763493        2.6191035221406807E-002
   3.0962060794739945        2.3279358274557599E-002
   3.7154474751576103        2.0617992098059444E-002
   4.4585371795056794        1.8199627068416775E-002
   5.3502448601566410        1.6015973468658556E-002
   6.4202941194577310        1.4057084647224863E-002
   7.7043532816429625        1.2311375945985881E-002
   9.2452243374939549        1.0765970496086416E-002
   11.094269677989603        9.4071368879543073E-003
   13.313124174753732        8.2207105482951445E-003
   15.975749676673912        7.1924619454989281E-003
   19.170900405942007        6.3086330385874736E-003
   23.005081433420379        5.5560875645427549E-003
   27.606098849222427        4.9227450506328495E-003
   33.127319967578494        4.3968779931581829E-003
   39.752785572878103        3.9674464683615131E-003
   47.703344615164461        3.6237502842471478E-003
   57.244015845020293        3.3558493824784206E-003
   68.692821775781937        3.1537182088476083E-003
   82.431389438617515        3.0072486268015058E-003
   98.917671289126176        2.9062904787933229E-003
   118.70121029586375        2.8409283665865211E-003
   142.44145804730147        2.8015242776648045E-003
   170.92975648104996        2.7795462606463412E-003
   200.00000000000000        2.7690488256772285E-003
